{"rows":[{"title":"\u0414\u0435\u043c\u043e\u043d \u041c\u0435\u0447\u0442\u044b","number":"793","date":"26.07.2020","image_url":"\/sites\/default\/files\/styles\/square_crop\/public\/releases\/%D0%BE%D0%B1%D0%BB%D0%BE%D0%B6%D0%BA%D0%B0%20%D0%92%D0%B0%D0%BD%D0%B4%D0%B0%20793.jpg?itok=R7Co7UcI","image_artist":"\u0418\u043b\u043b\u044e\u0441\u0442\u0440\u0430\u0446\u0438\u044f: \u0412\u0430\u043d\u0434\u0430 \u0411\u0430\u0440\u043a","node_path":"\/release\/793","tags":[{"id":"810","title":"Giuseppe Cambini","name":"Giuseppe Cambini"},{"id":"936","title":"Iggy Pop","name":"Iggy Pop"},{"id":"952","title":"Iron Butterfly","name":"Iron Butterfly"},{"id":"586","title":"Doors","name":"Doors"},{"id":"1729","title":"Roy Orbison","name":"Roy Orbison"},{"id":"1564","title":"Paul Simon","name":"Paul Simon"},{"id":"2118","title":"Whistlebinkies","name":"Whistlebinkies"},{"id":"1718","title":"Rolling Stones","name":"Rolling Stones"},{"id":"2456","title":"Books","name":"Books"}],"audiofile_url":"http:\/\/aerostats.getmobileup.com\/music\/793.mp3","composition_list":[{"composition_name":null},{"composition_name":"Cambini \u2013 Quintet No.1 in B Flat Major - Rondo. Allegretto grazioso "},{"composition_name":"Iggy Pop \u2013 Cry For Love"},{"composition_name":"Books \u2013 None But Shining Hours"},{"composition_name":"Iron Butterfly \u2013 My Mirage"},{"composition_name":"Doors \u2013 Orange County Suite"},{"composition_name":"Roy Orbison \u2013 Careless Heart"},{"composition_name":"Paul Simon \u2013 My Little Town"},{"composition_name":"The Whistlebinkies \u2013 Great Is The Cause Of My Sorrow"},{"composition_name":"Rolling Stones \u2013  Who\u0027s Been Sleeping Here"}]},{"title":"\u041d\u043e\u0432\u044b\u0435 \u0418\u043c\u0435\u043d\u0430 #29","number":"792","date":"19.07.2020","image_url":"\/sites\/default\/files\/styles\/square_crop\/public\/releases\/792%20%D0%92%D0%B0%D0%BD%D0%B4%D0%B0.jpg?itok=UZSIuDYu","image_artist":"\u0418\u043b\u043b\u044e\u0441\u0442\u0440\u0430\u0446\u0438\u044f: \u0412\u0430\u043d\u0434\u0430 \u0411\u0430\u0440\u043a","node_path":"\/release\/792","tags":[{"id":"2446","title":"Osborne Brothers","name":"Osborne Brothers"},{"id":"2447","title":"Mortimer","name":"Mortimer"},{"id":"2448","title":"Bill Withers","name":"Bill Withers"},{"id":"2449","title":"Steve Howe","name":"Steve Howe"},{"id":"2450","title":"Rat Cage","name":"Rat Cage"},{"id":"2451","title":"Camila Cabello","name":"Camila Cabello"},{"id":"2452","title":"Debashish Bhattacharya","name":"Debashish Bhattacharya"},{"id":"2453","title":"Snowgoose","name":"Snowgoose"},{"id":"2454","title":"Yusef Lateef","name":"Yusef Lateef"},{"id":"2455","title":"Green-House","name":"Green-House"}],"audiofile_url":"http:\/\/aerostats.getmobileup.com\/music\/792.mp3","composition_list":[{"composition_name":null},{"composition_name":"Osborne Brothers \u2013 Some Old Day"},{"composition_name":"Mortimer \u2013 Careful"},{"composition_name":"Bill Withers \u2013 Use Me"},{"composition_name":"Steve Howe \u2013 Surface Tension"},{"composition_name":"Rat Cage \u2013 A Country For Idiots"},{"composition_name":"Camila Cabello \u2013 Havana"},{"composition_name":"Debashish Bhattacharya \u2013 Maa"},{"composition_name":"Snowgoose \u2013 The Making Of You"},{"composition_name":"Yusef Lateef \u2013  Juba Juba"},{"composition_name":"Green-House \u2013 Peperomia Seedling"}]},{"title":"\u0412\u0441\u043b\u0443\u0445 \u043e \u041c\u0443\u0437\u044b\u043a\u0435","number":"791","date":"11.07.2020","image_url":"\/sites\/default\/files\/styles\/square_crop\/public\/releases\/791.jpg?itok=Dyoz-yBC","image_artist":"\u0418\u043b\u043b\u044e\u0441\u0442\u0440\u0430\u0446\u0438\u044f: \u0412\u0430\u043d\u0434\u0430 \u0411\u0430\u0440\u043a","node_path":"\/release\/791","tags":[{"id":"1162","title":"King Crimson","name":"King Crimson"},{"id":"120","title":"Animal Collective","name":"Animal Collective"},{"id":"2273","title":"Rakesh Chaurasia","name":"Rakesh Chaurasia"},{"id":"1201","title":"Le Myst\u00e8re Des Voix Bulgares","name":"Le Myst\u00e8re Des Voix Bulgares"},{"id":"211","title":"Beatles","name":"Beatles"},{"id":"438","title":"Cocteau Twins","name":"Cocteau Twins"},{"id":"278","title":"Bob Dylan","name":"Bob Dylan"},{"id":"2441","title":"Dietrich Buxtehude","name":"Dietrich Buxtehude"}],"audiofile_url":"http:\/\/aerostats.getmobileup.com\/music\/791.mp3","composition_list":[{"composition_name":null},{"composition_name":"King Crimson \u2013 Red"},{"composition_name":"King Crimson \u2013 Lady Of The Dancing Water"},{"composition_name":"Dietrich Buxtehude \u2013 Ein Feste Burg Ist Unser Gott"},{"composition_name":"Animal Collective \u2013 Hounds Of Bairro"},{"composition_name":"Rakesh Chaurasia \u2013 Bada Natkhat Hai  "},{"composition_name":"Le Myst\u00e8re Des Voix Bulgares \u2013 Tche Da Ti Kupim Bela Seitsa"},{"composition_name":"Beatles \u2013 You Like Me Too Much"},{"composition_name":"Cocteau Twins \u2013 Rilkean Heart"},{"composition_name":"Bob Dylan \u2013 When The Ship Comes In"}]},{"title":"\u041d\u043e\u0432\u044b\u0435 \u041f\u0435\u0441\u043d\u0438 \u0418\u044e\u043b\u044f","number":"790","date":"05.07.2020","image_url":"\/sites\/default\/files\/styles\/square_crop\/public\/releases\/790.png?itok=mPo9jTKc","image_artist":"\u0418\u043b\u043b\u044e\u0441\u0442\u0440\u0430\u0446\u0438\u044f: \u0412\u0430\u043d\u0434\u0430 \u0411\u0430\u0440\u043a","node_path":"\/release\/790","tags":[{"id":"1397","title":"Michael Stipe","name":"Michael Stipe"},{"id":"278","title":"Bob Dylan","name":"Bob Dylan"},{"id":"2026","title":"Toots \u0026 The Maytals","name":"Toots \u0026amp; The Maytals"},{"id":"1470","title":"Neil Young","name":"Neil Young"},{"id":"1911","title":"Sting","name":"Sting"},{"id":"2435","title":"Big Red Machine","name":"Big Red Machine"},{"id":"2436","title":"Dalai Lama","name":"Dalai Lama"},{"id":"2437","title":"Bananagun","name":"Bananagun"},{"id":"2438","title":"Julianna Barwick","name":"Julianna Barwick"},{"id":"2439","title":"J\u00f3nsi","name":"J\u00f3nsi"},{"id":"2440","title":"Shaggy","name":"Shaggy"}],"audiofile_url":"http:\/\/aerostats.getmobileup.com\/music\/790.mp3","composition_list":[{"composition_name":null},{"composition_name":"Michael Stipe \u0026 Big Red Machine \u2013 No Time For Love Like Now"},{"composition_name":"Bob Dylan \u2013 My Own Version Of You"},{"composition_name":"Toots \u0026 The Maytals \u2013 Got To Be Tough"},{"composition_name":"Dalai Lama \u2013 Compassion"},{"composition_name":"Neil Young \u2013 Vacancy"},{"composition_name":"Bananagun \u2013 Perfect Stranger"},{"composition_name":"Julianna Barwick feat. J\u00f3nsi \u2013 In Light"},{"composition_name":"Shaggy feat. Sting \u2013 Angel"}]},{"title":"\u041c\u0443\u0437\u044b\u043a\u0430 \u0420\u0435\u0432\u0443\u0449\u0438\u0445 20-\u0445","number":"789","date":"28.06.2020","image_url":"\/sites\/default\/files\/styles\/square_crop\/public\/releases\/789.png?itok=js88dnAu","image_artist":"\u0418\u043b\u043b\u044e\u0441\u0442\u0440\u0430\u0446\u0438\u044f: \u0412\u0430\u043d\u0434\u0430 \u0411\u0430\u0440\u043a","node_path":"\/release\/789","tags":[{"id":"431","title":"Cliff Edwards","name":"Cliff Edwards"},{"id":"2249","title":"Fred Rich \u0026 His Orchestra","name":"Fred Rich \u0026amp; His Orchestra"},{"id":"2250","title":"Nick Lucas","name":"Nick Lucas"},{"id":"2251","title":"Cab Calloway","name":"Cab Calloway"},{"id":"2252","title":"Blind Lemon Jefferson","name":"Blind Lemon Jefferson"},{"id":"2253","title":"Al Jolson","name":"Al Jolson"},{"id":"2254","title":"Paul Hindemith","name":"Paul Hindemith"},{"id":"1090","title":"Johnny Marvin","name":"Johnny Marvin"},{"id":"689","title":"Fats Waller","name":"Fats Waller"},{"id":"748","title":"Fred Astaire","name":"Fred Astaire"},{"id":"1266","title":"Louis Armstrong","name":"Louis Armstrong"}],"audiofile_url":"http:\/\/aerostats.getmobileup.com\/music\/789.mp3","composition_list":[{"composition_name":null},{"composition_name":"Fred Rich \u0026 His Orchestra \u2013 Singing In The Rain"},{"composition_name":"Nick Lucas \u2013 Tip-Toe Thru\u0027 The Tulips With Me"},{"composition_name":"Johnny Marvin \u0026 Leonard Joy Orchestra \u2013 Happy Days Are Here Again"},{"composition_name":"Fats Waller \u2013 Ain\u0027t Misbehavin\u0027"},{"composition_name":"Cab Calloway \u2013 Minnie The Moocher"},{"composition_name":"Fred Astaire \u2013 Puttin\u0027 On The Ritz"},{"composition_name":"Cliff \u00abUkulele Ike\u00bb Edwards \u2013 That\u0027s My Weakness Now "},{"composition_name":"Louis Armstrong \u2013 It Don\u0027t Mean A Thing (If It Ain\u0027t Got That Swing)"},{"composition_name":"Blind Lemon Jefferson \u2013 Hangman\u0027s Blues"},{"composition_name":"Al Jolson \u2013 Pasadena"},{"composition_name":"Paul Hindemith \u2013 Hindemith: Concerto for Orchestra, Op. 38 - 1. Mit Kraft, m\u00e4\u00dfig schnelle Viertel "},{"composition_name":"Cliff \u00abUkulele Ike\u00bb Edwards \u2013  Orange Blossom Time"}]},{"title":"\u041d\u043e\u0432\u044b\u0439 \u0410\u043b\u044c\u0431\u043e\u043c \u0410","number":"788","date":"21.06.2020","image_url":"\/sites\/default\/files\/styles\/square_crop\/public\/releases\/788.jpg?itok=LljAMiu9","image_artist":"\u0418\u043b\u043b\u044e\u0441\u0442\u0440\u0430\u0446\u0438\u044f: \u041c\u0430\u0440\u0438\u043d\u0430 \u0411\u0430\u0440\u0442\u043e\u0448","node_path":"\/release\/788","tags":[{"id":"2191","title":"\u0411\u0413","name":"\u0411\u0413"},{"id":"2179","title":"\u0410\u043a\u0432\u0430\u0440\u0438\u0443\u043c","name":"\u0410\u043a\u0432\u0430\u0440\u0438\u0443\u043c"}],"audiofile_url":"http:\/\/aerostats.getmobileup.com\/music\/788.mp3","composition_list":[{"composition_name":null},{"composition_name":"\u0411\u0413 \u2013 \u0410\u043b\u044c\u0444\u0430"},{"composition_name":"\u0411\u0413 \u2013 \u0412\u043e\u043d \u0412\u0430\u0432\u0438\u043b\u043e\u043d"},{"composition_name":"\u0411\u0413 \u2013 \u041c\u043e\u0435 \u0418\u043c\u044f \u041f\u044b\u043b\u044c"},{"composition_name":"\u0411\u0413 \u2013 \u041d\u0435 \u0421\u0443\u0434\u044c\u0431\u0430"},{"composition_name":"\u0411\u0413 \u2013 \u0412\u0435\u0447\u043d\u043e\u0435 \u0412\u043e\u0437\u0432\u0440\u0430\u0449\u0435\u043d\u0438\u0435"},{"composition_name":"\u0411\u0413 \u2013 \u0417\u043d\u0430\u043a"},{"composition_name":"\u0411\u0413 \u2013 \u041c\u0430\u0441\u0430\u043b\u0430 \u0414\u043e\u0441\u0430"},{"composition_name":"\u0411\u0413 \u2013 \u0425\u0438\u0445\u0430\u043d\u044c\u043a\u0438 \u0414\u0430 \u0425\u0430\u0445\u0430\u043d\u044c\u043a\u0438"},{"composition_name":"\u0411\u0413 \u2013 \u041c\u043e\u0439 \u042f\u0441\u043d\u044b\u0439 \u0421\u0432\u0435\u0442"},{"composition_name":"\u0411\u0413 \u2013 \u041f\u043e\u0443\u0442\u0440\u0443 \u0412 \u041f\u043e\u043b\u0435"}]},{"title":"\u0420\u043e\u043a-\u0417\u0432\u0435\u0437\u0434\u0430","number":"787","date":"14.06.2020","image_url":"\/sites\/default\/files\/styles\/square_crop\/public\/releases\/787.png?itok=17NvxI-Z","image_artist":"\u0418\u043b\u043b\u044e\u0441\u0442\u0440\u0430\u0446\u0438\u044f: \u0412\u0430\u043d\u0434\u0430 \u0411\u0430\u0440\u043a","node_path":"\/release\/787","tags":[{"id":"928","title":"Ian Anderson","name":"Ian Anderson"},{"id":"1718","title":"Rolling Stones","name":"Rolling Stones"},{"id":"514","title":"David Bowie","name":"David Bowie"},{"id":"1264","title":"Lou Reed","name":"Lou Reed"},{"id":"1637","title":"Queen","name":"Queen"},{"id":"1243","title":"Little Richard","name":"Little Richard"},{"id":"211","title":"Beatles","name":"Beatles"},{"id":"586","title":"Doors","name":"Doors"},{"id":"669","title":"Eurythmics","name":"Eurythmics"},{"id":"1696","title":"Robert Plant","name":"Robert Plant"}],"audiofile_url":"http:\/\/aerostats.getmobileup.com\/music\/787.mp3","composition_list":[{"composition_name":null},{"composition_name":"Ian Anderson \u2013 Photo Shop"},{"composition_name":"Rolling Stones \u2013 Child Of The Moon"},{"composition_name":"David Bowie \u2013 Sorrow"},{"composition_name":"Lou Reed \u2013 Ride Sally Ride"},{"composition_name":"Queen \u2013 I\u0027m Going Slightly Mad"},{"composition_name":"Little Richard \u2013 I Got It"},{"composition_name":"Beatles \u2013 What You\u0027re Doing"},{"composition_name":"Doors \u2013 Strange Days"},{"composition_name":"Eurythmics \u2013 Thorn In My Side"},{"composition_name":"Robert Plant \u2013 The Only Sound That Matters"}]},{"title":"\u041d\u043e\u0432\u044b\u0435 \u041f\u0435\u0441\u043d\u0438 \u0418\u044e\u043d\u044f","number":"786","date":"07.06.2020","image_url":"\/sites\/default\/files\/styles\/square_crop\/public\/releases\/786.png?itok=WVva4lxv","image_artist":"\u0418\u043b\u043b\u044e\u0441\u0442\u0440\u0430\u0446\u0438\u044f: \u0412\u0430\u043d\u0434\u0430 \u0411\u0430\u0440\u043a","node_path":"\/release\/786","tags":[{"id":"269","title":"Blitzen Trapper","name":"Blitzen Trapper"},{"id":"278","title":"Bob Dylan","name":"Bob Dylan"},{"id":"1838","title":"Sleaford Mods","name":"Sleaford Mods"},{"id":"1870","title":"Sparks","name":"Sparks"},{"id":"41","title":"47Soul","name":"47Soul"},{"id":"1592","title":"Phil Cunningham","name":"Phil Cunningham"},{"id":"107","title":"Aly Bain","name":"Aly Bain"},{"id":"2429","title":"Noveller","name":"Noveller"},{"id":"2430","title":"Bab L\u0027 Bluz","name":"Bab L\u0026#039; Bluz"},{"id":"2431","title":"Badly Drawn Boy","name":"Badly Drawn Boy"}],"audiofile_url":"http:\/\/aerostats.getmobileup.com\/music\/786.mp3","composition_list":[{"composition_name":null},{"composition_name":"Blitzen Trapper \u2013 Magical Thinking"},{"composition_name":"Bob Dylan \u2013 False Prophet"},{"composition_name":"Sleaford Mods \u2013 Tarantula Deadly Cargo"},{"composition_name":"Sparks \u2013 Stravinsky\u0027s Only Hit"},{"composition_name":"Noveller \u2013 Canyons"},{"composition_name":"Bab L\u0027 Bluz \u2013 Ila Mata"},{"composition_name":"Badly Drawn Boy \u2013 You And Me Against The World"},{"composition_name":"47Soul \u2013 Dabke System"},{"composition_name":"Phil Cunningham \u0026 Aly Bain \u2013  Lightly Swims The Swan"}]}],"pager":{"current_page":0,"total_items":"793","total_pages":100,"items_per_page":"8"}}