{"rows":[{"title":"\u041f\u043e\u0437\u0438\u0442\u0438\u0432\u043d\u0430\u044f \u044d\u043d\u0435\u0440\u0433\u0438\u044f","number":"914","date":"31.05.2020","image_url":"\/sites\/default\/files\/styles\/square_crop\/public\/releases\/5X6yexgNypI.jpg?h=f8e004da\u0026amp;itok=74cXOv_N","image_artist":"","node_path":"\/release\/914","tags":[{"id":"27","title":"\u0431\u043b\u044e\u0437","name":"\u0431\u043b\u044e\u0437"},{"id":"23","title":"\u0433\u0438\u0442\u0430\u0440\u0430","description":"\u003Cp\u003Edescription of tadrigeuuwov\u003C\/p\u003E","views_number":"11","name":"\u0433\u0438\u0442\u0430\u0440\u0430"},{"id":"21","title":"\u0431\u0443\u0434\u0434\u0438\u0437\u043c","description":"\u003Cp\u003Edescription of bow\u003C\/p\u003E","views_number":"3","name":"\u0431\u0443\u0434\u0434\u0438\u0437\u043c"},{"id":"29","title":"\u0418\u043d\u0434\u0438\u044f","name":"\u0418\u043d\u0434\u0438\u044f"},{"id":"26","title":"\u043f\u043e\u044d\u0437\u0438\u044f","name":"\u043f\u043e\u044d\u0437\u0438\u044f"},{"id":"17","title":"\u043f\u0440\u0438\u0442\u0447\u0438","description":"\u003Cp\u003Edescription of souujutraj\u003C\/p\u003E","views_number":"12","name":"\u043f\u0440\u0438\u0442\u0447\u0438"},{"id":"28","title":"\u0441\u0438\u0442\u0430\u0440","name":"\u0441\u0438\u0442\u0430\u0440"},{"id":"25","title":"\u043c\u0443\u0437\u044b\u043a\u0430 60-\u0445","name":"\u043c\u0443\u0437\u044b\u043a\u0430 60-\u0445"}],"audiofile_url":"http:\/\/aerostats.getmobileup.com\/music\/114.mp3","composition_list":[{"composition_name":"vukiwrastustotevisliwesoluthagepestutheuadirosephaspecruleveveruwurislidithimufrubefrajashecradocripogecreshusletepipawobruswudrucuslekuhatutotron"},{"composition_name":"th"}]},{"title":"\u0417\u0430\u0431\u044b\u0442\u0430\u044f \u043a\u043b\u0430\u0441\u0441\u0438\u043a\u0430","number":"869","date":"24.05.2020","image_url":"\/sites\/default\/files\/styles\/square_crop\/public\/releases\/YAqZXG8zpFg.jpg?itok=rJ31cGFK","image_artist":"","node_path":"\/release\/869","tags":[{"id":"21","title":"\u0431\u0443\u0434\u0434\u0438\u0437\u043c","description":"\u003Cp\u003Edescription of bow\u003C\/p\u003E","views_number":"3","name":"\u0431\u0443\u0434\u0434\u0438\u0437\u043c"},{"id":"23","title":"\u0433\u0438\u0442\u0430\u0440\u0430","description":"\u003Cp\u003Edescription of tadrigeuuwov\u003C\/p\u003E","views_number":"11","name":"\u0433\u0438\u0442\u0430\u0440\u0430"}],"audiofile_url":"http:\/\/aerostats.getmobileup.com\/music\/169.mp3","composition_list":[{"composition_name":"pesluhitrigusaclufrashastudospodrespothathephudashefrecobiveprathishukichehubevahudufrichaslicledahakimovirotiphugoslewaueceslebrevachajespof"},{"composition_name":"chabiphaslocriswuslibrephecraprachichoslaphimatratijochudranoswibuthusluuawovespaphiboc"}]},{"title":"Genitus Lucidus Mos Scisco Singularis Vulputate","number":"764","date":"17.05.2020","image_url":"\/sites\/default\/files\/styles\/square_crop\/public\/releases\/qwLTom9AlBg---square.jpg?itok=l1MNAHyI","image_artist":"","node_path":"\/release\/764","tags":[{"id":"17","title":"\u043f\u0440\u0438\u0442\u0447\u0438","description":"\u003Cp\u003Edescription of souujutraj\u003C\/p\u003E","views_number":"12","name":"\u043f\u0440\u0438\u0442\u0447\u0438"},{"id":"21","title":"\u0431\u0443\u0434\u0434\u0438\u0437\u043c","description":"\u003Cp\u003Edescription of bow\u003C\/p\u003E","views_number":"3","name":"\u0431\u0443\u0434\u0434\u0438\u0437\u043c"}],"audiofile_url":"http:\/\/aerostats.getmobileup.com\/music\/764.mp3","composition_list":[{"composition_name":"tetronuwrekeprephochibumosephofrisposlifrushodecrujecrepruslijakamadecrurespimipreriwreclotrachuricludrogestiwibrubecrothijekithowroclopusotecrophephastucliv"},{"composition_name":"wrabijivislimipocribuvuspawopragesatriclitubusletowobriruswifrubuwrauiueswawrugothugostospewesosluvahauohethokutreclatalocisebolish"},{"composition_name":"ceswobucrobodredrouupecregastaclunojalijodrumechacritrahimalugoprolopusluwromomidrostuvehiphoshathuslehunitrifre"}]},{"title":"\u041d\u043e\u0432\u044b\u0435 \u043f\u0435\u0441\u043d\u0438 \u0430\u043f\u0440\u0435\u043b\u044f","number":"548","date":"10.05.2020","image_url":"\/sites\/default\/files\/styles\/square_crop\/public\/releases\/PSf_A2YIFLQ.jpg?itok=BIEKayGt","image_artist":"","node_path":"\/release\/548","tags":[{"id":"29","title":"\u0418\u043d\u0434\u0438\u044f","name":"\u0418\u043d\u0434\u0438\u044f"},{"id":"25","title":"\u043c\u0443\u0437\u044b\u043a\u0430 60-\u0445","name":"\u043c\u0443\u0437\u044b\u043a\u0430 60-\u0445"},{"id":"21","title":"\u0431\u0443\u0434\u0434\u0438\u0437\u043c","description":"\u003Cp\u003Edescription of bow\u003C\/p\u003E","views_number":"3","name":"\u0431\u0443\u0434\u0434\u0438\u0437\u043c"}],"audiofile_url":"http:\/\/aerostats.getmobileup.com\/music\/548.mp3","composition_list":[{"composition_name":"caswekachabruclawrafruspojofranib"}]},{"title":"Beatles \u0432 XXI-\u043e\u043c \u0432\u0435\u043a\u0435","number":"376","date":"03.05.2020","image_url":"\/sites\/default\/files\/styles\/square_crop\/public\/releases\/mu5rcMgMV7Q.jpg?itok=okTD9k1Y","image_artist":"","node_path":"\/release\/376","tags":[{"id":"23","title":"\u0433\u0438\u0442\u0430\u0440\u0430","description":"\u003Cp\u003Edescription of tadrigeuuwov\u003C\/p\u003E","views_number":"11","name":"\u0433\u0438\u0442\u0430\u0440\u0430"},{"id":"28","title":"\u0441\u0438\u0442\u0430\u0440","name":"\u0441\u0438\u0442\u0430\u0440"}],"audiofile_url":"http:\/\/aerostats.getmobileup.com\/music\/376.mp3","composition_list":[{"composition_name":"uephatrejucichocluwratrudustewothameclahapotrudolushoclestuhurosluchochusebodrumobigukistacluwecloprepilumajubikachirerodispupethuhu"},{"composition_name":"fraslacresposhuswusastospishitrubrudradidispuphamawrawrauuthutritiuahowoshapestujiswiwuclogamodawijocushushothilufruclekewurojuwikicrosutipremaswispebrospawrophamacouichasatrostebastecruthepucluswithuswufratranatrenisliluphepibregosevoshotejutr"},{"composition_name":"lewebidratrowuslojohagaduuitraslasturatepolucheuicekitusludevopitholaciweguwrocrotratriclephiluuewugomutaslasostiuidrojohothilabewaraputhuwetostoneradanupivemowrikatouijoclivistat"}]},{"title":"\u0421\u0435\u043c\u0435\u0440\u043e \u0418\u0437 \u041f\u043e\u0434 \u041a\u0430\u043c\u043d\u0435\u0439","number":"350","date":"26.04.2020","image_url":"\/sites\/default\/files\/styles\/square_crop\/public\/releases\/kZlKUqvZM6E-square.jpg?itok=Qj9XHV3H","image_artist":"","node_path":"\/release\/350","tags":[{"id":"23","title":"\u0433\u0438\u0442\u0430\u0440\u0430","description":"\u003Cp\u003Edescription of tadrigeuuwov\u003C\/p\u003E","views_number":"11","name":"\u0433\u0438\u0442\u0430\u0440\u0430"},{"id":"20","title":"\u043a\u0435\u043b\u044c\u0442\u044b","description":"\u003Cp\u003Edescription of niwar\u003C\/p\u003E","name":"\u043a\u0435\u043b\u044c\u0442\u044b"},{"id":"15","title":"Beatles","description":"\u003Cp\u003Edescription of swiwuhat\u003C\/p\u003E","views_number":"5","name":"Beatles"},{"id":"28","title":"\u0441\u0438\u0442\u0430\u0440","name":"\u0441\u0438\u0442\u0430\u0440"}],"audiofile_url":"http:\/\/aerostats.getmobileup.com\/music\/350.mp3","composition_list":[{"composition_name":"chubocledodipuclobredrusijiwroprihugechuwudihithatrobriguchafribrapracridorabitronushohikasemupekawricrugiliproclibrodohoshedroslarocudrevuvaclastostijaclichuspithislupheshubisti"},{"composition_name":"spokucrevoritrucrothimaclojispetoswadri"}]},{"title":"\u041f\u0440\u043e\u0442\u0435\u0441\u0442 \u043a\u0440\u0430\u0441\u043e\u0442\u043e\u0439","number":"286","date":"19.04.2020","image_url":"\/sites\/default\/files\/styles\/square_crop\/public\/releases\/I73_MByws4E-square.jpg?itok=AEkn2srQ","image_artist":"","node_path":"\/release\/286","tags":[{"id":"15","title":"Beatles","description":"\u003Cp\u003Edescription of swiwuhat\u003C\/p\u003E","views_number":"5","name":"Beatles"}],"audiofile_url":"http:\/\/aerostats.getmobileup.com\/music\/286.mp3","composition_list":[{"composition_name":"fretuclo"},{"composition_name":"nesonumu"}]},{"title":"\u0411\u0435\u043b\u0442\u0430\u0439\u043d","number":"145","date":"12.04.2020","image_url":"\/sites\/default\/files\/styles\/square_crop\/public\/releases\/hmUPQy-setc.jpg?itok=STDssohv","image_artist":"","node_path":"\/release\/145","tags":[{"id":"20","title":"\u043a\u0435\u043b\u044c\u0442\u044b","description":"\u003Cp\u003Edescription of niwar\u003C\/p\u003E","name":"\u043a\u0435\u043b\u044c\u0442\u044b"},{"id":"17","title":"\u043f\u0440\u0438\u0442\u0447\u0438","description":"\u003Cp\u003Edescription of souujutraj\u003C\/p\u003E","views_number":"12","name":"\u043f\u0440\u0438\u0442\u0447\u0438"},{"id":"23","title":"\u0433\u0438\u0442\u0430\u0440\u0430","description":"\u003Cp\u003Edescription of tadrigeuuwov\u003C\/p\u003E","views_number":"11","name":"\u0433\u0438\u0442\u0430\u0440\u0430"},{"id":"21","title":"\u0431\u0443\u0434\u0434\u0438\u0437\u043c","description":"\u003Cp\u003Edescription of bow\u003C\/p\u003E","views_number":"3","name":"\u0431\u0443\u0434\u0434\u0438\u0437\u043c"}],"audiofile_url":"http:\/\/aerostats.getmobileup.com\/music\/145.mp3","composition_list":[{"composition_name":"phukupraspitrishebrestawrabeuadriuuswedaswacoclorutramusigaraguphipheprisustaclenitrosucrebabrinabrahispeslephagaphenasewrapiwrigogeprodoshaspotruswidraliwrauecruhecrepodruvaprarofrus"},{"composition_name":"sta"}]}],"pager":{"current_page":0,"total_items":"12","total_pages":2,"items_per_page":8}}