{"rows":[{"title":"Post Punk ","number":"286","search_excerpt":"\u2026 \u2026 Einst\u00fcrzende Neubauten - Tanz Debil \u2026 Joy Division - Love \u003Cstrong\u003EWill\u003C\/strong\u003E Tear Us Apart \u2026 Cure - Lovesong \u2026 Psychedelic Furs - \u2026 Ghost In You \u2026 Ultravox - Love\u2019s Great Adventure \u2026 U2 - I \u003Cstrong\u003EWill\u003C\/strong\u003E Follow \u2026 \u0417\u0434\u0440\u0430\u0432\u0441\u0442\u0432\u0443\u0439\u0442\u0435! \u041c\u0443\u0437\u044b\u043a\u043e\u0432\u0435\u0434\u0430\u043c \u0431\u0443\u0434\u0443\u0449\u0435\u0433\u043e \u043f\u0440\u0435\u0434\u0441\u0442\u043e\u0438\u0442, \u2026 \u043f\u043e\u0441\u0442-\u043f\u0430\u043d\u043a\u0430 \u0433\u0440\u0443\u043f\u043f\u0430 Joy Division, \u043f\u0435\u0441\u043d\u044f \u043d\u0430\u0437\u044b\u0432\u0430\u0435\u0442\u0441\u044f \u00abLove \u003Cstrong\u003EWill\u003C\/strong\u003E Tear Us Apart\u00bb. \u0418\u0441\u0442\u043e\u0440\u0438\u044f \u044d\u0442\u0438\u0445 \u043d\u0430\u0437\u0432\u0430\u043d\u0438\u0439 \u0438 \u044d\u0442\u043e\u0439 \u0433\u0440\u0443\u043f\u043f\u044b \u0434\u043b\u044f \u2026","node_path":"\/release\/286","date":"07.11.2010","audiofile_url":"http:\/\/aerostats.getmobileup.com\/music\/286.mp3","tags":[{"id":"2059","title":"U2","name":"U2"},{"id":"2063","title":"Ultravox","name":"Ultravox"},{"id":"1629","title":"Psychedelic Furs","name":"Psychedelic Furs"},{"id":"478","title":"Cure","name":"Cure"},{"id":"1113","title":"Joy Division","name":"Joy Division"},{"id":"630","title":"Einst\u00fcrzende Neubauten","name":"Einst\u00fcrzende Neubauten"},{"id":"2047","title":"Tubeway Army","name":"Tubeway Army"},{"id":"1631","title":"Public Image Ltd.","name":"Public Image Ltd."},{"id":"1825","title":"Siouxsie And The Banshees","name":"Siouxsie And The Banshees"},{"id":"769","title":"Gang Of Four","name":"Gang Of Four"},{"id":"2138","title":"Wire","name":"Wire"}],"composition_list":[{"composition_name":null},{"composition_name":"Wire - Another The Letter"},{"composition_name":"Gang Of Four - Natural\u2019s Not In It"},{"composition_name":"Siouxsie And The Banshees - Christine"},{"composition_name":"Public Image Ltd. - Rise"},{"composition_name":"Tubeway Army - Me! I Disconnect From You"},{"composition_name":"Einst\u00fcrzende Neubauten - Tanz Debil"},{"composition_name":"Joy Division - Love Will Tear Us Apart"},{"composition_name":"Cure - Lovesong"},{"composition_name":"Psychedelic Furs - The Ghost In You"},{"composition_name":"Ultravox - Love\u2019s Great Adventure"},{"composition_name":"U2 - I Will Follow"}]},{"title":"\u0410\u0440\u0442\u0435\u043b\u044c \u0421\u043b\u043e\u043d 6 ","number":"297","search_excerpt":"\u2026 Arch \u2026 Gerbils - The Air We Share \u2026 Great Lakes - This \u003Cstrong\u003EWill\u003C\/strong\u003E Be Our Year \u2026 Of Montreal - \u003Cstrong\u003EWill\u003C\/strong\u003E You Come And Fetch Me? \u2026 Instruments - Carnival \u2026 \u2026","node_path":"\/release\/297","date":"23.01.2011","audiofile_url":"http:\/\/aerostats.getmobileup.com\/music\/297.mp3","tags":[{"id":"1472","title":"Neutral Milk Hotel","name":"Neutral Milk Hotel"},{"id":"667","title":"Essex Green","name":"Essex Green"},{"id":"138","title":"Apples In Stereo","name":"Apples In Stereo"},{"id":"1472","title":"Neutral Milk Hotel","name":"Neutral Milk Hotel"},{"id":"597","title":"Dressy Bessy","name":"Dressy Bessy"},{"id":"948","title":"Instruments","name":"Instruments"},{"id":"1521","title":"Of Montreal","name":"Of Montreal"},{"id":"842","title":"Great Lakes","name":"Great Lakes"},{"id":"794","title":"Gerbils","name":"Gerbils"},{"id":"1187","title":"Ladybug Transistor","name":"Ladybug Transistor"},{"id":"1528","title":"Olivia Tremor Control","name":"Olivia Tremor Control"},{"id":"1415","title":"Minders","name":"Minders"},{"id":"138","title":"Apples In Stereo","name":"Apples In Stereo"}],"composition_list":[{"composition_name":null},{"composition_name":"Apples In Stereo - Joanie Don\u2019t You Worry"},{"composition_name":"Minders - Golden Street"},{"composition_name":"Olivia Tremor Control - Jumping Fences"},{"composition_name":"Ladybug Transistor - Meadowport Arch"},{"composition_name":"Gerbils - The Air We Share"},{"composition_name":"Great Lakes - This Will Be Our Year"},{"composition_name":"Of Montreal - Will You Come And Fetch Me?"},{"composition_name":"Instruments - Carnival"},{"composition_name":"Dressy Bessy - Just Like Henry"},{"composition_name":"Neutral Milk Hotel - In The Aeroplane Over The Sea"},{"composition_name":"Apples In Stereo - Dance Floor"},{"composition_name":"Essex Green - Don\u2019t Know Why (You Stay)"},{"composition_name":"Neutral Milk Hotel - The King Of Carrot Flowers Pt. One"}]},{"title":"\u0421\u043e\u043a\u0440\u043e\u0432\u0435\u043d\u043d\u044b\u0435 \u041f\u0435\u0441\u043d\u0438 ","number":"383","search_excerpt":"\u2026 - Bicycle Song \u2026 Mary Hopkin - Que Sera, Sera (Whatever \u003Cstrong\u003EWill\u003C\/strong\u003E Be, \u003Cstrong\u003EWill\u003C\/strong\u003E Be) \u2026 \u0417\u0434\u0440\u0430\u0432\u0441\u0442\u0432\u0443\u0439\u0442\u0435! \u0415\u0441\u0442\u044c \u043f\u0435\u0441\u043d\u0438, \u043a\u043e\u0442\u043e\u0440\u044b\u0435 \u0443 \u0432\u0441\u0435\u0445 \u043d\u0430 \u2026","node_path":"\/release\/383","date":"16.09.2012","audiofile_url":"http:\/\/aerostats.getmobileup.com\/music\/383.mp3","tags":[{"id":"1349","title":"Mary Hopkin","name":"Mary Hopkin"},{"id":"1668","title":"Red Hot Chili Peppers","name":"Red Hot Chili Peppers"},{"id":"281","title":"Bob Marley \u0026 The Wailers","name":"Bob Marley \u0026amp; The Wailers"},{"id":"2014","title":"Tom Waits","name":"Tom Waits"},{"id":"2121","title":"Who","name":"Who"},{"id":"1718","title":"Rolling Stones","name":"Rolling Stones"},{"id":"785","title":"George Harrison","name":"George Harrison"},{"id":"585","title":"Donovan","name":"Donovan"},{"id":"1602","title":"Pink Floyd","name":"Pink Floyd"},{"id":"1058","title":"John Dowland","name":"John Dowland"}],"composition_list":[{"composition_name":null},{"composition_name":"John Dowland - Leggiero"},{"composition_name":"Pink Floyd - Scream Thy Last Scream"},{"composition_name":"Donovan - Newest Bath Guide"},{"composition_name":"George Harrison - Hottest Gong In Town"},{"composition_name":"Rolling Stones - Anyway You Look At It"},{"composition_name":"Who - Girl\u2019s Eyes"},{"composition_name":"Tom Waits - Brother, Can You Spare A Dime?"},{"composition_name":"Bob Marley \u0026 The Wailers - High Tide Or Low Tide"},{"composition_name":"Red Hot Chili Peppers - Bicycle Song"},{"composition_name":"Mary Hopkin - Que Sera, Sera (Whatever Will Be, Will Be)"}]},{"title":"\u0412\u0441\u0435 \u041a\u043e\u0442\u0443 \u041c\u0430\u0441\u043b\u0435\u043d\u0438\u0446\u0430 ","number":"235","search_excerpt":"\u2026 Epcot View \u2026 Noah And The Whale \u2013 5 Years Time \u2026 \u2026And You \u003Cstrong\u003EWill\u003C\/strong\u003E Know Us By The Trail Of Dead \u2013 Gold Heart Mountain Top \u2026 \u043c\u0430\u0441\u0441\u044b \u0441\u0432\u043e\u0438\u043c \u043d\u0435\u043f\u0440\u043e\u0441\u0442\u044b\u043c \u043d\u0430\u0437\u0432\u0430\u043d\u0438\u0435\u043c. \u00ab\u2026And You \u003Cstrong\u003EWill\u003C\/strong\u003E Know Us By The Trail Of Dead\u00bb \u2013\u00a0\u043d\u0430\u0437\u0432\u0430\u043b\u0438\u0441\u044c \u043e\u043d\u0438; \u00ab\u0418 \u0432\u044b \u2026","node_path":"\/release\/235","date":"15.11.2009","audiofile_url":"http:\/\/aerostats.getmobileup.com\/music\/235.mp3","tags":[{"id":"35","title":"...And You Will Know Us By The Trail Of Dead","name":"...And You Will Know Us By The Trail Of Dead"},{"id":"45","title":"9bach","name":"9bach"},{"id":"269","title":"Blitzen Trapper","name":"Blitzen Trapper"},{"id":"468","title":"Crimea","name":"Crimea"},{"id":"747","title":"Fratellis","name":"Fratellis"},{"id":"760","title":"Future Clouds \u0026 Radar","name":"Future Clouds \u0026amp; Radar"},{"id":"1126","title":"Junipers","name":"Junipers"},{"id":"1501","title":"Noah And The Whale","name":"Noah And The Whale"},{"id":"1526","title":"Okkervil River","name":"Okkervil River"}],"composition_list":[{"composition_name":null},{"composition_name":"Noah And The Whale \u2013 2 Atoms In A Molecule"},{"composition_name":"Future Clouds \u0026 Radar \u2013 The Epcot View"},{"composition_name":"Noah And The Whale \u2013 5 Years Time"},{"composition_name":"\u2026And You Will Know Us By The Trail Of Dead \u2013 Gold Heart Mountain Top Queen Directory"},{"composition_name":"Okkervil River \u2013 Lost Coastlines"},{"composition_name":"9bach \u2013 C\u2019weiriwch Fy Ngwely"},{"composition_name":"Blitzen Trapper \u2013 Furr"},{"composition_name":"Fratellis \u2013 Whistle For The Choir"},{"composition_name":"Junipers \u2013 Callooh Callay!"},{"composition_name":"Crimea \u2013 Lottery Winners On Acid"}]},{"title":"\u041d\u043e\u0432\u044b\u0435 \u041f\u0435\u0441\u043d\u0438. \u041d\u043e\u044f\u0431\u0440\u044c ","number":"495","search_excerpt":"\u2026 \u2026 Eric Clapton - For Jack \u2026 Bonnie Prince Billy - There \u003Cstrong\u003EWill\u003C\/strong\u003E Be Spring \u2026 AC\/DC - Play Ball \u2026 Noel Gallagher\u2019s High \u2026","node_path":"\/release\/495","date":"09.11.2014","audiofile_url":"http:\/\/aerostats.getmobileup.com\/music\/495.mp3","tags":[{"id":"1527","title":"Old Crow Medicine Show","name":"Old Crow Medicine Show"},{"id":"278","title":"Bob Dylan","name":"Bob Dylan"},{"id":"487","title":"Damien Rice","name":"Damien Rice"},{"id":"146","title":"Ariel Pink","name":"Ariel Pink"},{"id":"1505","title":"Noel Gallagher\u0027s High Flying Birds","name":"Noel Gallagher\u0026#039;s High Flying Birds"},{"id":"55","title":"AC\/DC","name":"AC\/DC"},{"id":"291","title":"Bonnie Prince Billy","name":"Bonnie Prince Billy"},{"id":"659","title":"Eric Clapton","name":"Eric Clapton"},{"id":"1994","title":"Thom Yorke","name":"Thom Yorke"},{"id":"1224","title":"Levellers","name":"Levellers"}],"composition_list":[{"composition_name":null},{"composition_name":"Levellers - What A Beautiful Day"},{"composition_name":"Thom Yorke - A Brain In A Bottle"},{"composition_name":"Eric Clapton - For Jack"},{"composition_name":"Bonnie Prince Billy - There Will Be Spring"},{"composition_name":"AC\/DC - Play Ball"},{"composition_name":"Noel Gallagher\u2019s High Flying Birds - In The Heat Of The Moment"},{"composition_name":"Ariel Pink - Put Your Number In My Phone"},{"composition_name":"Damien Rice - I Don\u2019t Want To Change You"},{"composition_name":"Bob Dylan - 900 Miles From My Home"},{"composition_name":"Old Crow Medicine Show - Firewater"}]},{"title":"\u0415\u0449\u0451 \u043d\u043e\u0432\u0430\u044f \u043c\u0443\u0437\u044b\u043a\u0430 ","number":"654","search_excerpt":"\u2026 \u0421\u0438\u0440\u0438\u043d, \u0410\u043b\u043a\u043e\u043d\u043e\u0441\u0442, \u0413\u0430\u043c\u0430\u044e\u043d \u2026 Josh Ritter feat. Bob Weir - When \u003Cstrong\u003EWill\u003C\/strong\u003E I Be Changed \u2026 George Harrison - Blow Away \u2026 \u2026","node_path":"\/release\/654","date":"26.11.2017","audiofile_url":"http:\/\/aerostats.getmobileup.com\/music\/654.mp3","tags":[{"id":"785","title":"George Harrison","name":"George Harrison"},{"id":"1110","title":"Josh Ritter","name":"Josh Ritter"},{"id":"2179","title":"\u0410\u043a\u0432\u0430\u0440\u0438\u0443\u043c","name":"\u0410\u043a\u0432\u0430\u0440\u0438\u0443\u043c"},{"id":"2101","title":"Wand","name":"Wand"},{"id":"355","title":"Canzoniere Grecanico Salentino","name":"Canzoniere Grecanico Salentino"},{"id":"1924","title":"Sufjan Stevens","name":"Sufjan Stevens"},{"id":"258","title":"Bj\u00f6rk","name":"Bj\u00f6rk"},{"id":"653","title":"Enter Shikari","name":"Enter Shikari"}],"composition_list":[{"composition_name":null},{"composition_name":"Enter Shikari - Live Outside"},{"composition_name":"Bj\u00f6rk - The Gate"},{"composition_name":"Sufjan Stevens - Wallowa Lake Monster"},{"composition_name":"Canzoniere Grecanico Salentino - Quannu Te Visciu"},{"composition_name":"Wand - Bee Karma"},{"composition_name":"\u0410\u043a\u0432\u0430\u0440\u0438\u0443\u043c - \u0421\u0438\u0440\u0438\u043d, \u0410\u043b\u043a\u043e\u043d\u043e\u0441\u0442, \u0413\u0430\u043c\u0430\u044e\u043d"},{"composition_name":"Josh Ritter feat. Bob Weir - When Will I Be Changed"},{"composition_name":"George Harrison - Blow Away"}]},{"title":"300 \u041f\u043e\u043b\u0435\u0442\u043e\u0432 \u043e \u041b\u044e\u0431\u0432\u0438 ","number":"300","search_excerpt":"\u2026 Know By Now \u2026 Dick Gaughan - Jock O\u2019Hazeldean \u2026 Beatles - I \u003Cstrong\u003EWill\u003C\/strong\u003E \u2026 Richard Thompson feat. Mary Black and Dolores Keane - \u2026","node_path":"\/release\/300","date":"13.02.2011","audiofile_url":"http:\/\/aerostats.getmobileup.com\/music\/300.mp3","tags":[{"id":"211","title":"Beatles","name":"Beatles"},{"id":"370","title":"Carla Olson","name":"Carla Olson"},{"id":"397","title":"Chieftains","name":"Chieftains"},{"id":"559","title":"Dick Gaughan","name":"Dick Gaughan"},{"id":"581","title":"Dolores Keane","name":"Dolores Keane"},{"id":"585","title":"Donovan","name":"Donovan"},{"id":"669","title":"Eurythmics","name":"Eurythmics"},{"id":"777","title":"Gene Clark","name":"Gene Clark"},{"id":"1345","title":"Mary Black","name":"Mary Black"},{"id":"1407","title":"Mike Oldfield","name":"Mike Oldfield"},{"id":"1641","title":"R.E.M.","name":"R.E.M."},{"id":"1682","title":"Richard Thompson","name":"Richard Thompson"},{"id":"1695","title":"Robert Palmer","name":"Robert Palmer"},{"id":"1918","title":"Strawbs","name":"Strawbs"}],"composition_list":[{"composition_name":null},{"composition_name":"Gene Clark \u0026 Carla Olson - Fair And Tender Ladies"},{"composition_name":"Eurythmics - My Guy"},{"composition_name":"Sandy Denny And The Strawbs - And You Need Me"},{"composition_name":"R.E.M. - Why Not Smile"},{"composition_name":"Robert Palmer - Know By Now"},{"composition_name":"Dick Gaughan - Jock O\u2019Hazeldean"},{"composition_name":"Beatles - I Will"},{"composition_name":"Richard Thompson feat. Mary Black and Dolores Keane - The Dimming Of The Day"},{"composition_name":"Donovan - Mercy"},{"composition_name":"Mike Oldfield - Moonlight Shadow"},{"composition_name":"Chieftains - Tristan And Isolde: Love Theme"}]},{"title":"8 \u043c\u0430\u0440\u0442\u0430 ","number":"199","search_excerpt":"\u2026 Bo \u2026 Damien Rice - Cannonball \u2026 Inger Marie Gundersen - \u003Cstrong\u003EWill\u003C\/strong\u003E You Still Love Me Tomorrow \u2026 \u0417\u0434\u0440\u0430\u0432\u0441\u0442\u0432\u0443\u0439\u0442\u0435! \u041f\u043e\u0437\u0434\u0440\u0430\u0432\u043b\u044f\u044e \u2026","node_path":"\/release\/199","date":"08.03.2009","audiofile_url":"http:\/\/aerostats.getmobileup.com\/music\/199.mp3","tags":[{"id":"944","title":"Inger Marie Gundersen","name":"Inger Marie Gundersen"},{"id":"487","title":"Damien Rice","name":"Damien Rice"},{"id":"1143","title":"Kate Rusby","name":"Kate Rusby"},{"id":"886","title":"Harry Nilsson","name":"Harry Nilsson"},{"id":"473","title":"Crowded House","name":"Crowded House"},{"id":"1016","title":"Jethro Tull","name":"Jethro Tull"},{"id":"124","title":"Annie Lennox","name":"Annie Lennox"},{"id":"1457","title":"Nancy Sinatra","name":"Nancy Sinatra"},{"id":"1101","title":"Joni Mitchell","name":"Joni Mitchell"}],"composition_list":[{"composition_name":null},{"composition_name":"Joni Mitchell - You Turn Me On, I\u2019m A Radio"},{"composition_name":"Frank \u0026 Nancy Sinatra - Something Stupid"},{"composition_name":"Annie Lennox - A Thousand Beautiful Things"},{"composition_name":"Jethro Tull - Sossity: You\u2019re A Woman"},{"composition_name":"Crowded House - Not The Girl You Think You Are"},{"composition_name":"Harry Nilsson - Mucho Mungo\/Mt. Elga"},{"composition_name":"Kate Rusby - Bitter Bo"},{"composition_name":"Damien Rice - Cannonball"},{"composition_name":"Inger Marie Gundersen - Will You Still Love Me Tomorrow"}]}],"pager":{"current_page":0,"total_items":"49","total_pages":7,"items_per_page":"8"}}