{"rows":[{"title":"\u041d\u0435\u0432\u043e\u0441\u043f\u0435\u0442\u044b\u0435 \u0413\u0435\u0440\u043e\u0438 ","number":"479","search_excerpt":"\u2026 \u0432\u0441\u0435 \u0440\u0430\u0432\u043d\u043e - \u043d\u0435 \u0441\u0447\u0435\u0441\u0442\u044c \u0441\u043e\u043a\u0440\u043e\u0432\u0438\u0449 \u0432 \u043a\u0430\u043c\u0435\u043d\u043d\u044b\u0445 \u043f\u0435\u0449\u0435\u0440\u0430\u0445, \u043e\u0441\u0442\u0430\u044e\u0442\u0441\u044f \u003Cstrong\u003E\u0438\u043c\u0435\u043d\u0430\u003C\/strong\u003E, \u043f\u043e\u043b\u044c\u0437\u0443\u044e\u0449\u0438\u0435\u0441\u044f \u043e\u0433\u0440\u043e\u043c\u043d\u044b\u043c \u0443\u0432\u0430\u0436\u0435\u043d\u0438\u0435\u043c, \u043a\u043e\u0442\u043e\u0440\u044b\u0435 \u0435\u0449\u0451 \u043d\u0438\u043a\u043e\u0433\u0434\u0430 \u2026 \u0441\u0432\u043e\u044f \u0446\u0435\u043d\u043d\u043e\u0441\u0442\u044c, \u043f\u043e\u0442\u043e\u043c\u0443 \u0447\u0442\u043e \u0438\u0437 \u044d\u0442\u0438\u0445 \u0438\u0441\u0442\u043e\u0440\u0438\u0439 \u043c\u043e\u0436\u043d\u043e \u0437\u0430\u043f\u043e\u043c\u043d\u0438\u0442\u044c \u003Cstrong\u003E\u0438\u043c\u0435\u043d\u0430\u003C\/strong\u003E, \u0430 \u0443\u0437\u043d\u0430\u0432 \u003Cstrong\u003E\u0438\u043c\u0435\u043d\u0430\u003C\/strong\u003E, \u043c\u043e\u0436\u043d\u043e \u043d\u0430\u0439\u0442\u0438 \u043c\u0443\u0437\u044b\u043a\u0443, \u0430 \u043d\u0430\u0439\u0434\u044f \u043c\u0443\u0437\u044b\u043a\u0443, \u043c\u043e\u0436\u043d\u043e \u0435\u0451 \u0441\u043b\u0443\u0448\u0430\u0442\u044c \u2026","node_path":"\/release\/479","date":"20.07.2014","audiofile_url":"http:\/\/aerostats.getmobileup.com\/music\/479.mp3","tags":[{"id":"1049","title":"Johann Sebastian Bach","name":"Johann Sebastian Bach"},{"id":"1468","title":"Neil Innes","name":"Neil Innes"},{"id":"1357","title":"Matia Bazar","name":"Matia Bazar"},{"id":"1487","title":"Nick Mason","name":"Nick Mason"},{"id":"689","title":"Fats Waller","name":"Fats Waller"},{"id":"836","title":"Gram Parsons","name":"Gram Parsons"},{"id":"340","title":"Buzzcocks","name":"Buzzcocks"},{"id":"918","title":"Howlin\u0027 Wolf","name":"Howlin\u0026#039; Wolf"},{"id":"1073","title":"John Sebastian","name":"John Sebastian"}],"composition_list":[{"composition_name":null},{"composition_name":"Johann Sebastian Bach - English Suite No. 2 In A Minor: Bourr\u00e9e II"},{"composition_name":"John Sebastian - Rainbows All Over Your Blues"},{"composition_name":"Howlin\u2019 Wolf - Spoonful"},{"composition_name":"Johann Sebastian Bach - English Suite No. 1 In A Major: Courante I"},{"composition_name":"Buzzcocks - Ever Fallen In Love (With Someone You Shouldn\u2019t \u2018ve?)"},{"composition_name":"Gram Parsons - Brass Buttons"},{"composition_name":"Fats Waller - Ain\u2019t Misbehaving"},{"composition_name":"Nick Mason - Hot River"},{"composition_name":"Matia Bazar - Vacanze Romane"},{"composition_name":"Neil Innes - How Sweet To Be An Idiot"},{"composition_name":"Johann Sebastian Bach - English Suite No. 1 In A Major: Double I"}]},{"title":"\u0421 \u043d\u0430\u0441\u0442\u0443\u043f\u0430\u044e\u0449\u0438\u043c! ","number":"711","search_excerpt":"\u2026 \u0432 \u0438\u0441\u0442\u043e\u043a\u0435. \u041a\u043e\u0433\u0434\u0430 \u0432\u043e\u0441\u043f\u0440\u0438\u044f\u0442\u0438\u0435 \u043d\u0430\u043f\u0440\u0430\u0432\u043b\u0435\u043d\u043e \u043d\u0430\u0440\u0443\u0436\u0443, \u0432\u043e\u0437\u043d\u0438\u043a\u0430\u044e\u0442 \u003Cstrong\u003E\u0438\u043c\u0435\u043d\u0430\u003C\/strong\u003E \u0438 \u0444\u043e\u0440\u043c\u044b; \u043a\u043e\u0433\u0434\u0430 \u043e\u043d\u043e \u043d\u0430\u043f\u0440\u0430\u0432\u043b\u0435\u043d\u043e \u0432\u043d\u0443\u0442\u0440\u044c - \u003Cstrong\u003E\u0438\u043c\u0435\u043d\u0430\u003C\/strong\u003E \u0438 \u0444\u043e\u0440\u043c\u044b \u0438\u0441\u0447\u0435\u0437\u0430\u044e\u0442. \u041a\u043e\u0433\u0434\u0430 \u0432\u043e\u0441\u043f\u0440\u0438\u044f\u0442\u0438\u0435 \u043d\u0430\u0445\u043e\u0434\u0438\u0442\u0441\u044f \u0432 \u0438\u0441\u0442\u043e\u043a\u0435, \u2026","node_path":"\/release\/711","date":"30.12.2018","audiofile_url":"http:\/\/aerostats.getmobileup.com\/music\/711.mp3","tags":[{"id":"785","title":"George Harrison","name":"George Harrison"},{"id":"1940","title":"T. Rex","name":"T. Rex"},{"id":"255","title":"Bing Crosby","name":"Bing Crosby"},{"id":"1634","title":"Purushottama","name":"Purushottama"},{"id":"659","title":"Eric Clapton","name":"Eric Clapton"},{"id":"1428","title":"Moody Blues","name":"Moody Blues"},{"id":"559","title":"Dick Gaughan","name":"Dick Gaughan"},{"id":"585","title":"Donovan","name":"Donovan"},{"id":"1967","title":"Texas Gypsies","name":"Texas Gypsies"}],"composition_list":[{"composition_name":null},{"composition_name":"George Harrison - I Live For You"},{"composition_name":"Texas Gypsies - Lights Up The Sun"},{"composition_name":"Donovan - The Land Of Doesn\u2019t Have To Be"},{"composition_name":"Dick Gaughan - Scojun Waltz \/ Randers Hopsa"},{"composition_name":"Moody Blues - Dr. Livingstone, I Presume"},{"composition_name":"George Harrison - Behind That Locked Door"},{"composition_name":"Eric Clapton - Rockin\u2019 Chair"},{"composition_name":"Purushottama - Gratitude Heart"},{"composition_name":"Bing Crosby \u0026 Grace Kelly - True Love"},{"composition_name":"T. Rex - Seagull Woman"},{"composition_name":"George Harrison - Give Me Love (Give Me Peace On Earth)"}]},{"title":"\u041c\u043e\u0440\u0435 \u0427\u0430\u0439\u043d\u043e\u0439 \u041b\u043e\u0436\u043a\u043e\u0439 ","number":"535","search_excerpt":"\u2026 Herds\u00bb (\u0412\u0435\u0449\u0438 \u0441\u0442\u0430\u0434\u0430\u043c\u0438), \u043e\u043d\u0438 \u0441\u043b\u0435\u0434\u0443\u044e\u0442 \u0434\u0440\u0443\u0433\u0438\u043c \u043f\u0443\u0442\u0435\u043c, \u0443 \u043d\u0438\u0445 \u0435\u0441\u0442\u044c \u003Cstrong\u003E\u0438\u043c\u0435\u043d\u0430\u003C\/strong\u003E - \u0435\u0433\u043e \u0437\u043e\u0432\u0443\u0442 \u041b\u0430\u0448, \u0430 \u0435\u0451 - \u041c\u0438\u0441\u0441 \u041f\u0438\u043d\u0433. \u0412\u0438\u043a\u0438\u043f\u0435\u0434\u0438\u044f \u0441\u043e\u043e\u0431\u0449\u0430\u0435\u0442, \u2026","node_path":"\/release\/535","date":"16.08.2015","audiofile_url":"http:\/\/aerostats.getmobileup.com\/music\/535.mp3","tags":[{"id":"57","title":"Abaji","name":"Abaji"},{"id":"224","title":"Ben Bridwell","name":"Ben Bridwell"},{"id":"354","title":"Cannonball Adderley","name":"Cannonball Adderley"},{"id":"367","title":"Carl Ditters von Dittersdorf","name":"Carl Ditters von Dittersdorf"},{"id":"386","title":"Charles Ives","name":"Charles Ives"},{"id":"568","title":"Dion","name":"Dion"},{"id":"676","title":"FSS","name":"FSS"},{"id":"951","title":"Iron \u0026 Wine","name":"Iron \u0026amp; Wine"},{"id":"1509","title":"Nozinja","name":"Nozinja"},{"id":"1987","title":"Things In Herds","name":"Things In Herds"}],"composition_list":[{"composition_name":null},{"composition_name":"Iron \u0026 Wine \u0026 Ben Bridwell - This Must Be The Place (Naive Melody)"},{"composition_name":"Things In Herds - Nothing Is Lost"},{"composition_name":"Cannonball Adderley - Clouds"},{"composition_name":"Carl Ditters von Dittersdorf - Symphony In F Major, Grave F7: Minuetto"},{"composition_name":"Nozinja - Xihukwani"},{"composition_name":"Abaji - Kilmit Hob"},{"composition_name":"Charles Ives - A Set Of Three Short Pieces: Hymn (Largo \u0421antabile)"},{"composition_name":"FSS - S\u00f5 Desu Ne"},{"composition_name":"Dion - Runaround Sue"}]},{"title":"\u0423\u0440\u043e\u0436\u0430\u0439 \u0441\u0435\u043d\u0442\u044f\u0431\u0440\u044f ","number":"642","search_excerpt":"\u2026 \u043e \u0442\u043e\u043b\u044c\u043a\u043e \u0447\u0442\u043e \u0432\u044b\u0448\u0435\u0434\u0448\u0435\u0439 \u043c\u0443\u0437\u044b\u043a\u0435 \u043c\u044b \u0438\u0433\u0440\u0430\u043b\u0438 \u0432\u0441\u0451 \u0441\u043e\u0432\u0441\u0435\u043c \u043d\u043e\u0432\u044b\u0435 \u003Cstrong\u003E\u0438\u043c\u0435\u043d\u0430\u003C\/strong\u003E - \u0434\u0430\u0432\u0430\u0439\u0442\u0435 \u0442\u0435\u043f\u0435\u0440\u044c \u043f\u043e\u0441\u043b\u0443\u0448\u0430\u0435\u043c, \u0447\u0442\u043e \u0441\u043e\u0437\u0440\u0435\u043b\u043e \u0443 \u0437\u0430\u0441\u043b\u0443\u0436\u0435\u043d\u043d\u044b\u0445 \u2026","node_path":"\/release\/642","date":"03.09.2017","audiofile_url":"http:\/\/aerostats.getmobileup.com\/music\/642.mp3","tags":[{"id":"1685","title":"Ringo Starr","name":"Ringo Starr"},{"id":"1655","title":"Randy Newman","name":"Randy Newman"},{"id":"2179","title":"\u0410\u043a\u0432\u0430\u0440\u0438\u0443\u043c","name":"\u0410\u043a\u0432\u0430\u0440\u0438\u0443\u043c"},{"id":"95","title":"Alice Cooper","name":"Alice Cooper"},{"id":"484","title":"Damian Marley","name":"Damian Marley"},{"id":"1400","title":"Mick Jagger","name":"Mick Jagger"},{"id":"352","title":"Can","name":"Can"},{"id":"1696","title":"Robert Plant","name":"Robert Plant"},{"id":"377","title":"Cat Stevens","name":"Cat Stevens"}],"composition_list":[{"composition_name":null},{"composition_name":"Yusuf \/ Cat Stevens - See What Love Did To Me"},{"composition_name":"Robert Plant - The May Queen"},{"composition_name":"Can - She Brings The Rain"},{"composition_name":"Mick Jagger - England Lost"},{"composition_name":"Damian Marley - The Struggle Discontinues"},{"composition_name":"Alice Cooper - Paranormal"},{"composition_name":"\u0410\u043a\u0432\u0430\u0440\u0438\u0443\u043c - \u0414\u0432\u0435\u0440\u0438 \u0442\u0440\u0430\u0432\u044b"},{"composition_name":"Randy Newman - She Chose Me"},{"composition_name":"Ringo Starr - Give More Love"}]},{"title":"\u041d\u043e\u0432\u044b\u0435 \u0418\u043c\u0435\u043d\u0430 ","number":"511","search_excerpt":"\u2026 \u043e\u0442\u043a\u0440\u044b\u0442\u044c \u0434\u043b\u044f \u0441\u0435\u0431\u044f \u0432\u0441\u044f\u043a\u0443\u044e \u043d\u043e\u0432\u0443\u044e \u043c\u0443\u0437\u044b\u043a\u0443 \u0438 \u0443\u043f\u043e\u043c\u044f\u043d\u0443\u0442\u044c \u003Cstrong\u003E\u0438\u043c\u0435\u043d\u0430\u003C\/strong\u003E, \u043a\u043e\u0442\u043e\u0440\u044b\u0435 \u043c\u044b \u0435\u0449\u0451 \u043d\u0438\u043a\u043e\u0433\u0434\u0430 \u043d\u0435 \u0443\u043f\u043e\u043c\u0438\u043d\u0430\u043b\u0438. \u0412\u043e\u0442, \u043d\u0430\u043f\u0440\u0438\u043c\u0435\u0440, \u2026","node_path":"\/release\/511","date":"01.03.2015","audiofile_url":"http:\/\/aerostats.getmobileup.com\/music\/511.mp3","tags":[{"id":"106","title":"Aluminum Group","name":"Aluminum Group"},{"id":"306","title":"Brian Eno","name":"Brian Eno"},{"id":"407","title":"Chris Spedding","name":"Chris Spedding"},{"id":"456","title":"Country Hams","name":"Country Hams"},{"id":"495","title":"Daniel Lanois","name":"Daniel Lanois"},{"id":"546","title":"Dennis Brown","name":"Dennis Brown"},{"id":"674","title":"Exploited","name":"Exploited"},{"id":"882","title":"Harold Budd","name":"Harold Budd"},{"id":"935","title":"Idlewild","name":"Idlewild"},{"id":"1022","title":"Jim Noir","name":"Jim Noir"},{"id":"1710","title":"Roddy Woomble","name":"Roddy Woomble"},{"id":"2001","title":"Tim Buckley","name":"Tim Buckley"}],"composition_list":[{"composition_name":null},{"composition_name":"Idlewild - Readers \u0026 Writers"},{"composition_name":"Jim Noir - Piece Of Mind"},{"composition_name":"Exploited - Dead Cities"},{"composition_name":"Roddy Woomble - Every Line of a Long Moment"},{"composition_name":"Chris Spedding - Now You See It"},{"composition_name":"Tim Buckley - Song To The Siren"},{"composition_name":"Harold Budd \u0026 Brian Eno with Daniel Lanois - A Stream With Bright Fish"},{"composition_name":"Dennis Brown - Money In My Pocket"},{"composition_name":"Aluminum Group - Two-Bit Faux Construction"},{"composition_name":"Country Hams - Walking In The Park With Elois"}]},{"title":"Cosmo Jarvis ","number":"379","search_excerpt":"\u2026 \u0434\u0435\u043b\u043e - \u0434\u043e\u0441\u0442\u0430\u0432\u0430\u0442\u044c \u0438\u0437 \u0448\u043a\u0430\u0444\u043e\u0432 \u0438\u0441\u0442\u043e\u0440\u0438\u0438 \u043b\u0435\u0433\u0435\u043d\u0434\u0430\u0440\u043d\u044b\u0435 \u003Cstrong\u003E\u0438\u043c\u0435\u043d\u0430\u003C\/strong\u003E \u0438 \u043f\u0435\u0441\u043d\u0438 \u0438 \u0440\u0430\u0434\u043e\u0432\u0430\u0442\u044c\u0441\u044f \u0438\u0445 \u0431\u0435\u0441\u0441\u043c\u0435\u0440\u0442\u043d\u043e\u0439 \u043a\u0440\u0430\u0441\u043e\u0442\u0435; \u043d\u043e \u0438\u043d\u043e\u0433\u0434\u0430 \u2026","node_path":"\/release\/379","date":"19.08.2012","audiofile_url":"http:\/\/aerostats.getmobileup.com\/music\/379.mp3","tags":[{"id":"452","title":"Cosmo Jarvis","name":"Cosmo Jarvis"}],"composition_list":[{"composition_name":null},{"composition_name":"Cosmo Jarvis - Tell Me Who To Be"},{"composition_name":"Cosmo Jarvis - Whatever"},{"composition_name":"Cosmo Jarvis - Think Bigger"},{"composition_name":"Cosmo Jarvis - She Doesn\u2019t Mind"},{"composition_name":"Cosmo Jarvis - Lacie"},{"composition_name":"Cosmo Jarvis - Hopeless Bay"},{"composition_name":"Cosmo Jarvis - Gay Pirates"},{"composition_name":"Cosmo Jarvis - Wrong Kind Of Happy"},{"composition_name":"Cosmo Jarvis - Sunshine \u0026 Dandelions"},{"composition_name":"Cosmo Jarvis - Screw You Moon"}]},{"title":"Lugh 2011 ","number":"324","search_excerpt":"\u2026 \u043f\u0440\u0430\u0437\u0434\u043d\u0438\u043a \u0443\u0440\u043e\u0436\u0430\u044f. \u0410 \u043a\u0430\u043a\u043e\u0439 \u0443 \u043d\u0430\u0441 \u043c\u043e\u0436\u0435\u0442 \u0431\u044b\u0442\u044c \u0443\u0440\u043e\u0436\u0430\u0439? \u041d\u043e\u0432\u044b\u0435 \u003Cstrong\u003E\u0438\u043c\u0435\u043d\u0430\u003C\/strong\u003E, \u043d\u043e\u0432\u044b\u0435 \u043f\u0435\u0441\u043d\u0438, \u043d\u043e\u0432\u0430\u044f \u043c\u0443\u0437\u044b\u043a\u0430 \u0438\u0437 \u043a\u0435\u043b\u044c\u0442\u0441\u043a\u043e\u0433\u043e \u0441\u0443\u043c\u0440\u0430\u043a\u0430. \u2026 \u0418 \u2026","node_path":"\/release\/324","date":"31.07.2011","audiofile_url":"http:\/\/aerostats.getmobileup.com\/music\/324.mp3","tags":[{"id":"107","title":"Aly Bain","name":"Aly Bain"},{"id":"228","title":"Beoga","name":"Beoga"},{"id":"397","title":"Chieftains","name":"Chieftains"},{"id":"654","title":"Enter The Haggis","name":"Enter The Haggis"},{"id":"700","title":"Finn\u0027s Fury","name":"Finn\u0026#039;s Fury"},{"id":"1282","title":"L\u00fanasa","name":"L\u00fanasa"},{"id":"1292","title":"Maggie Sansone","name":"Maggie Sansone"},{"id":"1578","title":"Pete Coe","name":"Pete Coe"},{"id":"1581","title":"Peter Bellamy","name":"Peter Bellamy"},{"id":"1592","title":"Phil Cunningham","name":"Phil Cunningham"},{"id":"1694","title":"Robert Mathieson","name":"Robert Mathieson"},{"id":"1855","title":"Solas","name":"Solas"}],"composition_list":[{"composition_name":null},{"composition_name":"L\u00fanasa - Maids In The Kitchen"},{"composition_name":"Pete Coe - Seven Warnings"},{"composition_name":"Enter The Haggis - One Last Drink"},{"composition_name":"Solas - The Wind That Shakes The Barley"},{"composition_name":"Finn\u2019s Fury - Highland Cathedral"},{"composition_name":"Beoga - Fly Fishing"},{"composition_name":"Peter Bellamy - Down By The Green Groves"},{"composition_name":"Robert Mathieson - Calypso: The Carnival Reel\/The Calypso Piper"},{"composition_name":"Aly Bain \u0026 Phil Cunningham - Sarah\u2019s Song"},{"composition_name":"Maggie Sansone - Bridget Cruise"},{"composition_name":"Chieftains - Dochas"}]},{"title":"\u041d\u043e\u0432\u044b\u0435 \u043f\u0435\u0441\u043d\u0438 \u0432 \u0430\u0432\u0433\u0443\u0441\u0442\u0435","number":"638","search_excerpt":"\u2026 \u0432\u0441\u0451-\u0442\u0430\u043a\u0438 \u043d\u0435\u043f\u0440\u0438\u0432\u044b\u0447\u043d\u043e\u0439: \u044f \u043b\u0438\u0441\u0442\u0430\u044e \u0436\u0443\u0440\u043d\u0430\u043b\u044b, \u0430 \u0432\u0441\u0435 \u0437\u043d\u0430\u043a\u043e\u043c\u044b\u0435 \u003Cstrong\u003E\u0438\u043c\u0435\u043d\u0430\u003C\/strong\u003E \u043f\u0440\u043e\u043f\u0430\u043b\u0438, \u0430 \u043a\u043e\u0442\u043e\u0440\u044b\u0435 \u043d\u0435 \u043f\u0440\u043e\u043f\u0430\u043b\u0438 - \u043a\u0430\u043a-\u0442\u043e \u0438\u0445 \u0438 \u0441\u043b\u0443\u0448\u0430\u0442\u044c \u043d\u0435 \u2026","node_path":"\/release\/638","date":"06.08.2017","audiofile_url":"http:\/\/aerostats.getmobileup.com\/music\/.mp3","tags":[{"id":"1016","title":"Jethro Tull","name":"Jethro Tull"},{"id":"631","title":"Ekoplekz","name":"Ekoplekz"},{"id":"1991","title":"This Is The Kit","name":"This Is The Kit"},{"id":"2153","title":"Yazz Ahmed","name":"Yazz Ahmed"},{"id":"1054","title":"John Adams","name":"John Adams"},{"id":"1938","title":"Sylvan Esso","name":"Sylvan Esso"},{"id":"318","title":"Broken Social Scene","name":"Broken Social Scene"},{"id":"1293","title":"Magic Gang","name":"Magic Gang"},{"id":"600","title":"Drugdealer","name":"Drugdealer"},{"id":"1399","title":"Michel-Richard de Lalande","name":"Michel-Richard de Lalande"}],"composition_list":[{"composition_name":null},{"composition_name":"Michel-Richard de Lalande - Fanfare"},{"composition_name":"Drugdealer feat. Weyes Blood - Suddenly"},{"composition_name":"Magic Gang - No One Else"},{"composition_name":"Broken Social Scene - Protest Song"},{"composition_name":"Sylvan Esso - Die Young"},{"composition_name":"John Adams - Shaker Loops: Hymning Slews"},{"composition_name":"Yazz Ahmed - The Space Between The Fish And The Moon"},{"composition_name":"This Is The Kit - Moonshine Freeze"},{"composition_name":"Ekoplekz - Denier Daze"},{"composition_name":"Jethro Tull - So Much Trouble"}]}],"pager":{"current_page":0,"total_items":"55","total_pages":7,"items_per_page":8}}