{"rows":{"Beatles":{"releases":[{"title":"10 \u041b\u0435\u0442 \u0410\u044d\u0440\u043e\u0441\u0442\u0430\u0442\u0443 ","number":"523","date":"24.05.2015","image_url":"\/sites\/default\/files\/styles\/square_crop\/public\/releases\/523.jpg?itok=XPn6CJ1W","image_artist":"\u0418\u043b\u043b\u044e\u0441\u0442\u0440\u0430\u0446\u0438\u044f: \u041c\u0430\u0440\u0438\u043d\u0430 \u0411\u0430\u0440\u0442\u043e\u0448","node_path":"\/release\/523","tags":[{"id":"211","title":"Beatles","name":"Beatles"},{"id":"454","title":"Cotton Mather","name":"Cotton Mather"},{"id":"514","title":"David Bowie","name":"David Bowie"},{"id":"585","title":"Donovan","name":"Donovan"},{"id":"682","title":"Family","name":"Family"},{"id":"840","title":"Grateful Dead","name":"Grateful Dead"},{"id":"1016","title":"Jethro Tull","name":"Jethro Tull"},{"id":"1349","title":"Mary Hopkin","name":"Mary Hopkin"},{"id":"1698","title":"Robert Wyatt","name":"Robert Wyatt"}],"audiofile_url":"http:\/\/aerostats.getmobileup.com\/music\/523.mp3","composition_list":[{"composition_name":null},{"composition_name":"David Bowie \u2013 Move On"},{"composition_name":"Donovan \u2013 Skip-A-Long Sam"},{"composition_name":"Mary Hopkin \u2013 Voyage Of The Moon"},{"composition_name":"Robert Wyatt \u2013 Maryan"},{"composition_name":"Tyrannosaurus Rex \u2013 Lofty Skies"},{"composition_name":"Family \u2013 No Mule\u2019s Fool"},{"composition_name":"Jethro Tull \u2013 Moths"},{"composition_name":"Grateful Dead \u2013 Ripple"},{"composition_name":"Cotton Mather \u2013 Heaven\u2019s Helping"},{"composition_name":"Beatles \u2013 P.S. I Love You"}]},{"title":"10 \u043b\u0443\u0447\u0448\u0438\u0445 \u0433\u0440\u0443\u043f\u043f \u0437\u0430 \u043f\u043e\u0441\u043b\u0435\u0434\u043d\u0438\u0435 2006 \u043b\u0435\u0442","number":"86","date":"07.01.2007","image_url":"\/sites\/default\/files\/styles\/square_crop\/public\/default_images\/%D0%97%D0%B0%D0%B3%D0%BB%D1%83%D1%88%D0%BA%D0%B0-%D0%B4%D0%BB%D1%8F-%D0%B2%D1%8B%D0%BF%D1%83%D1%81%D0%BA%D0%B0-%D0%B1%D0%B5%D0%B7-%D0%BE%D0%B1%D0%BB%D0%BE%D0%B6%D0%BA%D0%B8.jpg?itok=FmtJbsPx","image_artist":"","node_path":"\/release\/86","tags":[{"id":"1718","title":"Rolling Stones","name":"Rolling Stones"},{"id":"1646","title":"Radiohead","name":"Radiohead"},{"id":"1203","title":"Led Zeppelin","name":"Led Zeppelin"},{"id":"1016","title":"Jethro Tull","name":"Jethro Tull"},{"id":"840","title":"Grateful Dead","name":"Grateful Dead"},{"id":"586","title":"Doors","name":"Doors"},{"id":"438","title":"Cocteau Twins","name":"Cocteau Twins"},{"id":"1668","title":"Red Hot Chili Peppers","name":"Red Hot Chili Peppers"},{"id":"1641","title":"R.E.M.","name":"R.E.M."},{"id":"211","title":"Beatles","name":"Beatles"}],"audiofile_url":"http:\/\/aerostats.getmobileup.com\/music\/086.mp3","composition_list":[{"composition_name":null},{"composition_name":"Rolling Stones - Don\u0027t Stop"},{"composition_name":"Radiohead - No Surprises"},{"composition_name":"Led Zeppelin - Over The Hill \u0026 Far Away"},{"composition_name":"Jethro Tull - Life\u0027s A Long Song"},{"composition_name":"Grateful Dead - Dupree\u0027s Diamond Blues"},{"composition_name":"Doors - Shaman\u0027s Blues "},{"composition_name":"Cocteau Twins - Aikea Guinea "},{"composition_name":"Red Hot Chili Peppers - Otherside "},{"composition_name":"R.E.M. - Bad Day "},{"composition_name":"Beatles - She Said She Said"}]},{"title":"1000 \u043b\u0435\u0442 \u043c\u0443\u0437\u044b\u043a\u0438 ","number":"100","date":"15.04.2007","image_url":"\/sites\/default\/files\/styles\/square_crop\/public\/default_images\/%D0%97%D0%B0%D0%B3%D0%BB%D1%83%D1%88%D0%BA%D0%B0-%D0%B4%D0%BB%D1%8F-%D0%B2%D1%8B%D0%BF%D1%83%D1%81%D0%BA%D0%B0-%D0%B1%D0%B5%D0%B7-%D0%BE%D0%B1%D0%BB%D0%BE%D0%B6%D0%BA%D0%B8.jpg?itok=FmtJbsPx","image_artist":"","node_path":"\/release\/100","tags":[{"id":"75","title":"Al Bowlly","name":"Al Bowlly"},{"id":"133","title":"Antonio Vivaldi","name":"Antonio Vivaldi"},{"id":"173","title":"Atrium Musicae de Madrid","name":"Atrium Musicae de Madrid"},{"id":"211","title":"Beatles","name":"Beatles"},{"id":"426","title":"Clash","name":"Clash"},{"id":"1012","title":"Jerry Lee Lewis","name":"Jerry Lee Lewis"},{"id":"1051","title":"Johannes Brahms","name":"Johannes Brahms"},{"id":"1627","title":"Prodigy","name":"Prodigy"},{"id":"1885","title":"Sri Chinmoy Bhajan Singers","name":"Sri Chinmoy Bhajan Singers"},{"id":"1983","title":"Thelonious Monk","name":"Thelonious Monk"},{"id":"2063","title":"Ultravox","name":"Ultravox"},{"id":"2125","title":"William Byrd","name":"William Byrd"}],"audiofile_url":"http:\/\/aerostats.getmobileup.com\/music\/100.mp3","composition_list":[{"composition_name":null},{"composition_name":"Atrium Musicae de Madrid - Premier Hymne Delphique \u00c0 Apollon"},{"composition_name":"William Byrd - Haec Dies"},{"composition_name":"Antonio Vivaldi - Trumpet Concerto In A Flat Major: Sarabande"},{"composition_name":"Johannes Brahms - Symphony No. 2 In D Major: Allegretto Grazioso"},{"composition_name":"Al Bowlly - It Was The lover And His Lass"},{"composition_name":"Thelonious Monk - Five Spot Blues"},{"composition_name":"Jerry Lee Lewis - High School Confidential"},{"composition_name":"Beatles - Getting Better"},{"composition_name":"Clash - White Riot"},{"composition_name":"Ultravox - We Came to Dance"},{"composition_name":"Prodigy - Smack My Bitch Up"},{"composition_name":"Sri Chinmoy Bhajan Singers - Turier Nandana"}]},{"title":"12 \u043b\u0435\u0442. \u041b\u0435\u0442\u043e \u041b\u044e\u0431\u0432\u0438 \u201867 ","number":"628","date":"28.05.2017","image_url":"\/sites\/default\/files\/styles\/square_crop\/public\/releases\/628.jpg?itok=SDRgzPxx","image_artist":"\u0418\u043b\u043b\u044e\u0441\u0442\u0440\u0430\u0446\u0438\u044f: \u041c\u0430\u0440\u0438\u043d\u0430 \u0411\u0430\u0440\u0442\u043e\u0448","node_path":"\/release\/628","tags":[{"id":"211","title":"Beatles","name":"Beatles"},{"id":"466","title":"Cream","name":"Cream"},{"id":"682","title":"Family","name":"Family"},{"id":"840","title":"Grateful Dead","name":"Grateful Dead"},{"id":"941","title":"Incredible String Band","name":"Incredible String Band"},{"id":"1026","title":"Jimi Hendrix Experience","name":"Jimi Hendrix Experience"},{"id":"1133","title":"Kaleidoscope","name":"Kaleidoscope"},{"id":"1166","title":"Kinks","name":"Kinks"},{"id":"1306","title":"Manfred Mann","name":"Manfred Mann"},{"id":"1626","title":"Procol Harum","name":"Procol Harum"}],"audiofile_url":"http:\/\/aerostats.getmobileup.com\/music\/628.mp3","composition_list":[{"composition_name":null},{"composition_name":"Kaleidoscope - A Dream For Julie"},{"composition_name":"Cream - Wrapping Paper"},{"composition_name":"Grateful Dead - Uncle John\u2019s Band"},{"composition_name":"Incredible String Band - Nightfall"},{"composition_name":"Jimi Hendrix Experience - Spanish Castle Magic"},{"composition_name":"Beatles - If I Needed Someone"},{"composition_name":"Family - Love Is a Sleeper"},{"composition_name":"Kinks - Where Have All the Good Times Gone"},{"composition_name":"Beatles - With a Little Help From My Friends (2017 remix)"},{"composition_name":"Procol Harum - Wish Me Well"},{"composition_name":"Manfred Mann - Fox on the Run"}]},{"title":"15 \u041b\u0435\u0442 \u0410\u044d\u0440\u043e\u0441\u0442\u0430\u0442\u0438\u043a\u0438","number":"784","date":"24.05.2020","image_url":"\/sites\/default\/files\/styles\/square_crop\/public\/releases\/784.png?itok=zjDnfz2s","image_artist":"\u0418\u043b\u043b\u044e\u0441\u0442\u0440\u0430\u0446\u0438\u044f: \u0412\u0430\u043d\u0434\u0430 \u0411\u0430\u0440\u043a","node_path":"\/release\/784","tags":[{"id":"1821","title":"Simon \u0026 Garfunkel","name":"Simon \u0026amp; Garfunkel"},{"id":"1016","title":"Jethro Tull","name":"Jethro Tull"},{"id":"746","title":"Fran\u00e7oise Hardy","name":"Fran\u00e7oise Hardy"},{"id":"1718","title":"Rolling Stones","name":"Rolling Stones"},{"id":"467","title":"Creedence Clearwater Revival","name":"Creedence Clearwater Revival"},{"id":"537","title":"Deep Purple","name":"Deep Purple"},{"id":"117","title":"Andy M. Stewart","name":"Andy M. Stewart"},{"id":"211","title":"Beatles","name":"Beatles"},{"id":"2422","title":"Hemant Kumar","name":"Hemant Kumar"}],"audiofile_url":"http:\/\/aerostats.getmobileup.com\/music\/784.mp3","composition_list":[{"composition_name":null},{"composition_name":"Simon \u0026 Garfunkel \u2013 Beat Love"},{"composition_name":"Jethro Tull \u2013 Journeyman"},{"composition_name":"Fran\u00e7oise Hardy \u2013 Le Large"},{"composition_name":"Hemant Kumar \u2013 Ami Kaan Pete Roi"},{"composition_name":"Rolling Stones \u2013 19th  Nervous Breakdown"},{"composition_name":"Creedence Clearwater Revival \u2013 Lodi"},{"composition_name":"Deep Purple \u2013 Into The Fire"},{"composition_name":"Jethro Tull \u2013 From The Dead Beat To An Old Greaser"},{"composition_name":"Andy M. Stewart \u2013 Land O\u0027 The Leal"},{"composition_name":"Beatles \u2013 Real Love"}]},{"title":"300 \u041f\u043e\u043b\u0435\u0442\u043e\u0432 \u043e \u041b\u044e\u0431\u0432\u0438 ","number":"300","date":"13.02.2011","image_url":"\/sites\/default\/files\/styles\/square_crop\/public\/default_images\/%D0%97%D0%B0%D0%B3%D0%BB%D1%83%D1%88%D0%BA%D0%B0-%D0%B4%D0%BB%D1%8F-%D0%B2%D1%8B%D0%BF%D1%83%D1%81%D0%BA%D0%B0-%D0%B1%D0%B5%D0%B7-%D0%BE%D0%B1%D0%BB%D0%BE%D0%B6%D0%BA%D0%B8.jpg?itok=FmtJbsPx","image_artist":"","node_path":"\/release\/300","tags":[{"id":"211","title":"Beatles","name":"Beatles"},{"id":"370","title":"Carla Olson","name":"Carla Olson"},{"id":"397","title":"Chieftains","name":"Chieftains"},{"id":"559","title":"Dick Gaughan","name":"Dick Gaughan"},{"id":"581","title":"Dolores Keane","name":"Dolores Keane"},{"id":"585","title":"Donovan","name":"Donovan"},{"id":"669","title":"Eurythmics","name":"Eurythmics"},{"id":"777","title":"Gene Clark","name":"Gene Clark"},{"id":"1345","title":"Mary Black","name":"Mary Black"},{"id":"1407","title":"Mike Oldfield","name":"Mike Oldfield"},{"id":"1641","title":"R.E.M.","name":"R.E.M."},{"id":"1682","title":"Richard Thompson","name":"Richard Thompson"},{"id":"1695","title":"Robert Palmer","name":"Robert Palmer"},{"id":"1918","title":"Strawbs","name":"Strawbs"}],"audiofile_url":"http:\/\/aerostats.getmobileup.com\/music\/300.mp3","composition_list":[{"composition_name":null},{"composition_name":"Gene Clark \u0026 Carla Olson - Fair And Tender Ladies"},{"composition_name":"Eurythmics - My Guy"},{"composition_name":"Sandy Denny And The Strawbs - And You Need Me"},{"composition_name":"R.E.M. - Why Not Smile"},{"composition_name":"Robert Palmer - Know By Now"},{"composition_name":"Dick Gaughan - Jock O\u2019Hazeldean"},{"composition_name":"Beatles - I Will"},{"composition_name":"Richard Thompson feat. Mary Black and Dolores Keane - The Dimming Of The Day"},{"composition_name":"Donovan - Mercy"},{"composition_name":"Mike Oldfield - Moonlight Shadow"},{"composition_name":"Chieftains - Tristan And Isolde: Love Theme"}]},{"title":"7 \u043f\u043e\u043a\u043e\u043b\u0435\u043d\u0438\u0439","number":"745","date":"25.08.2019","image_url":"\/sites\/default\/files\/styles\/square_crop\/public\/default_images\/%D0%97%D0%B0%D0%B3%D0%BB%D1%83%D1%88%D0%BA%D0%B0-%D0%B4%D0%BB%D1%8F-%D0%B2%D1%8B%D0%BF%D1%83%D1%81%D0%BA%D0%B0-%D0%B1%D0%B5%D0%B7-%D0%BE%D0%B1%D0%BB%D0%BE%D0%B6%D0%BA%D0%B8.jpg?itok=FmtJbsPx","image_artist":"","node_path":"\/release\/745","tags":[{"id":"2321","title":"Franz Joseph Haydn","name":"Franz Joseph Haydn"},{"id":"1049","title":"Johann Sebastian Bach","name":"Johann Sebastian Bach"},{"id":"2320","title":"King Oliver\u0027s Creole Jazz Band","name":"King Oliver\u0026#039;s Creole Jazz Band"},{"id":"2319","title":"Kay Kyser \u0026 His Orchestra","name":"Kay Kyser \u0026amp; His Orchestra"},{"id":"739","title":"Frank Sinatra","name":"Frank Sinatra"},{"id":"211","title":"Beatles","name":"Beatles"},{"id":"1498","title":"Nirvana","name":"Nirvana"},{"id":"1646","title":"Radiohead","name":"Radiohead"},{"id":"1834","title":"Skrillex","name":"Skrillex"},{"id":"484","title":"Damian Marley","name":"Damian Marley"}],"audiofile_url":"http:\/\/aerostats.getmobileup.com\/music\/745.mp3","composition_list":[{"composition_name":null},{"composition_name":"Franz Joseph Haydn  \u0336  Symphonie No. 1 in D major: III. Finale: Presto"},{"composition_name":"Johann Sebastian Bach \u2013 French Suite No. 5 in G major: II. Courante"},{"composition_name":"King Oliver\u0027s Creole Jazz Band \u2013 Alligator Hop"},{"composition_name":"Kay Kyser \u0026 His Orchestra \u2013 The Umbrella Man"},{"composition_name":"Frank Sinatra \u2013 One For My Baby (And One More For The Road)"},{"composition_name":"Beatles \u2013 I Want To Hold Your Hand"},{"composition_name":"Nirvana \u2013 Lithium"},{"composition_name":"Radiohead \u2013 Paranoid Android"},{"composition_name":"Skrillex \u0026 Damian Marley \u2013 Make It Bun Dem"},{"composition_name":"Beatles \u2013 Across The Universe (Remastered)"}]},{"title":"Beatles as Avatar ","number":"170","date":"17.08.2008","image_url":"\/sites\/default\/files\/styles\/square_crop\/public\/default_images\/%D0%97%D0%B0%D0%B3%D0%BB%D1%83%D1%88%D0%BA%D0%B0-%D0%B4%D0%BB%D1%8F-%D0%B2%D1%8B%D0%BF%D1%83%D1%81%D0%BA%D0%B0-%D0%B1%D0%B5%D0%B7-%D0%BE%D0%B1%D0%BB%D0%BE%D0%B6%D0%BA%D0%B8.jpg?itok=FmtJbsPx","image_artist":"","node_path":"\/release\/170","tags":[{"id":"211","title":"Beatles","name":"Beatles"}],"audiofile_url":"http:\/\/aerostats.getmobileup.com\/music\/170.mp3","composition_list":[{"composition_name":null},{"composition_name":"Beatles - Sure To Fall (In Love With You)"},{"composition_name":"Beatles - There\u2019s A Place"},{"composition_name":"Beatles - Little Child"},{"composition_name":"Beatles - The Word"},{"composition_name":"Beatles - Rain"},{"composition_name":"Beatles - Here, There And Everywhere"},{"composition_name":"Beatles - With A Little Help From My Friends"},{"composition_name":"Beatles - All You Need Is Love"},{"composition_name":"Beatles - Glass Onion"},{"composition_name":"Beatles - Mother Nature\u2019s Son"},{"composition_name":"Beatles - Because"},{"composition_name":"Beatles - Golden Slumbers"},{"composition_name":"Beatles - The End"},{"composition_name":"Beatles - Hello Goodbye"}]}],"total_count":"102"}},"pager":{"current_page":0,"total_items":"103","total_pages":13,"items_per_page":8}}