{"rows":{"...And You Will Know Us By The Trail Of Dead":{"releases":[{"title":"\u0412\u0441\u0435 \u041a\u043e\u0442\u0443 \u041c\u0430\u0441\u043b\u0435\u043d\u0438\u0446\u0430 ","number":"235","date":"15.11.2009","image_url":"\/sites\/default\/files\/styles\/square_crop\/public\/default_images\/%D0%97%D0%B0%D0%B3%D0%BB%D1%83%D1%88%D0%BA%D0%B0-%D0%B4%D0%BB%D1%8F-%D0%B2%D1%8B%D0%BF%D1%83%D1%81%D0%BA%D0%B0-%D0%B1%D0%B5%D0%B7-%D0%BE%D0%B1%D0%BB%D0%BE%D0%B6%D0%BA%D0%B8.jpg?itok=FmtJbsPx","image_artist":"","node_path":"\/release\/235","tags":[{"id":"35","title":"...And You Will Know Us By The Trail Of Dead","name":"...And You Will Know Us By The Trail Of Dead"}],"audiofile_url":"http:\/\/aerostats.getmobileup.com\/music\/235.mp3","composition_list":[{"composition_name":null},{"composition_name":"Noah And The Whale \u2013 2 Atoms In A Molecule"},{"composition_name":"Future Clouds \u0026 Radar \u2013 The Epcot View"},{"composition_name":"Noah And The Whale \u2013 5 Years Time"},{"composition_name":"\u2026And You Will Know Us By The Trail Of Dead \u2013 Gold Heart Mountain Top Queen Directory"},{"composition_name":"Okkervil River \u2013 Lost Coastlines"},{"composition_name":"9bach \u2013 C\u2019weiriwch Fy Ngwely"},{"composition_name":"Blitzen Trapper \u2013 Furr"},{"composition_name":"Fratellis \u2013 Whistle For The Choir"},{"composition_name":"Junipers \u2013 Callooh Callay!"},{"composition_name":"Crimea \u2013 Lottery Winners On Acid"}],"tag_name":"...And You Will Know Us By The Trail Of Dead","tag_id":"35"}],"total_count":"1"},"10cc":{"releases":[{"title":"\u041a\u043e\u0440\u043e\u043b\u0438 \u0438 \u041a\u0430\u043f\u0443\u0441\u0442\u0430 ","number":"227","date":"20.09.2009","image_url":"\/sites\/default\/files\/styles\/square_crop\/public\/default_images\/%D0%97%D0%B0%D0%B3%D0%BB%D1%83%D1%88%D0%BA%D0%B0-%D0%B4%D0%BB%D1%8F-%D0%B2%D1%8B%D0%BF%D1%83%D1%81%D0%BA%D0%B0-%D0%B1%D0%B5%D0%B7-%D0%BE%D0%B1%D0%BB%D0%BE%D0%B6%D0%BA%D0%B8.jpg?itok=FmtJbsPx","image_artist":"","node_path":"\/release\/227","tags":[{"id":"36","title":"10cc","name":"10cc"}],"audiofile_url":"http:\/\/aerostats.getmobileup.com\/music\/227.mp3","composition_list":[{"composition_name":null},{"composition_name":"John Cale - Child\u2019s Christmas In Wales"},{"composition_name":"Nick Lowe - (I Love The Sound Of) Breaking Glass"},{"composition_name":"Stackridge - The Galloping Gaucho"},{"composition_name":"Stackridge - Humiliation"},{"composition_name":"Dr. Feelgood - Roxette"},{"composition_name":"Roy Wood - Wake Up"},{"composition_name":"Barclay James Harvest - Brother Thrush"},{"composition_name":"10cc - I\u2019m Mandy Fly Me"},{"composition_name":"Stackridge - Pinafore Days"},{"composition_name":"Electric Light Orchestra - One Summer Dream"}],"tag_name":"10cc","tag_id":"36"},{"title":"\u0421\u043d\u043e\u0432\u0430 70-\u0435","number":"77","date":"05.11.2006","image_url":"\/sites\/default\/files\/styles\/square_crop\/public\/default_images\/%D0%97%D0%B0%D0%B3%D0%BB%D1%83%D1%88%D0%BA%D0%B0-%D0%B4%D0%BB%D1%8F-%D0%B2%D1%8B%D0%BF%D1%83%D1%81%D0%BA%D0%B0-%D0%B1%D0%B5%D0%B7-%D0%BE%D0%B1%D0%BB%D0%BE%D0%B6%D0%BA%D0%B8.jpg?itok=FmtJbsPx","image_artist":"","node_path":"\/release\/77","tags":[{"id":"36","title":"10cc","name":"10cc"}],"audiofile_url":"http:\/\/aerostats.getmobileup.com\/music\/077.mp3","composition_list":[{"composition_name":null},{"composition_name":"Rod Stewart - Maggie May"},{"composition_name":"10cc - Dreadlock Holiday"},{"composition_name":"Motorhead - Ace Of Spades"},{"composition_name":"Sparks - Amateur Hour"},{"composition_name":"Black Sabbath - Changes"},{"composition_name":"Genesis - Dancing With a Moonlit Knight"},{"composition_name":"Badfinger - No Matter What"},{"composition_name":"Elton John - Your Song"},{"composition_name":"Slade - Gudbye T\u0027Jane"},{"composition_name":"Cat Stevens - Moonshadow"}],"tag_name":"10cc","tag_id":"36"}],"total_count":"2"},"13th Floor Elevators":{"releases":[{"title":"\u0413\u0430\u0440\u0430\u0436","number":"743","date":"11.08.2019","image_url":"\/sites\/default\/files\/styles\/square_crop\/public\/default_images\/%D0%97%D0%B0%D0%B3%D0%BB%D1%83%D1%88%D0%BA%D0%B0-%D0%B4%D0%BB%D1%8F-%D0%B2%D1%8B%D0%BF%D1%83%D1%81%D0%BA%D0%B0-%D0%B1%D0%B5%D0%B7-%D0%BE%D0%B1%D0%BB%D0%BE%D0%B6%D0%BA%D0%B8.jpg?itok=FmtJbsPx","image_artist":"","node_path":"\/release\/743","tags":[{"id":"2302","title":"13th Floor Elevators","name":"13th Floor Elevators"}],"audiofile_url":"http:\/\/aerostats.getmobileup.com\/music\/743.mp3","composition_list":[{"composition_name":null},{"composition_name":"Sam The Sham \u0026 The Pharaohs \u2013 Wooly Bully"},{"composition_name":"Sonics \u2013 Have Love Will Travel"},{"composition_name":"Count Five \u2013 Psychotic Reaction"},{"composition_name":"Kingsmen \u2013 Louie Louie"},{"composition_name":null},{"composition_name":"Nashville Teens \u2013 Tobacco Road"},{"composition_name":"Jimi Hendrix Experience \u2013 Wild Thing (Live At Monterey)"},{"composition_name":"Them \u2013 Gloria"},{"composition_name":"Electric Prunes \u2013 I Had Too Much To Dream (Last Night)"},{"composition_name":"13th Floor Elevators \u2013 You\u0027re Gonna Miss Me"},{"composition_name":"The Stooges \u2013 I Wanna Be Your Dog"},{"composition_name":"Strokes \u2013 Hard To Explain"},{"composition_name":"Bobby Fuller Four \u2013 I Fought The Law"}],"tag_name":"13th Floor Elevators","tag_id":"2302"}],"total_count":"1"},"2raumwohnung":{"releases":[{"title":"\u041f\u043e\u043f \u041c\u0443\u0437\u044b\u043a\u0430 ","number":"182","date":"09.11.2008","image_url":"\/sites\/default\/files\/styles\/square_crop\/public\/default_images\/%D0%97%D0%B0%D0%B3%D0%BB%D1%83%D1%88%D0%BA%D0%B0-%D0%B4%D0%BB%D1%8F-%D0%B2%D1%8B%D0%BF%D1%83%D1%81%D0%BA%D0%B0-%D0%B1%D0%B5%D0%B7-%D0%BE%D0%B1%D0%BB%D0%BE%D0%B6%D0%BA%D0%B8.jpg?itok=FmtJbsPx","image_artist":"","node_path":"\/release\/182","tags":[{"id":"37","title":"2raumwohnung","name":"2raumwohnung"}],"audiofile_url":"http:\/\/aerostats.getmobileup.com\/music\/182.mp3","composition_list":[{"composition_name":null},{"composition_name":"Ace Of Base - The Sign"},{"composition_name":"Captain Beefheart \u0026 His Magic Band - Dachau Blues"},{"composition_name":"Mika - Billy Brown"},{"composition_name":"Neil Sedaka - Oh! Carol"},{"composition_name":"2raumwohnung - 2 Von Millionen Von Sternen"},{"composition_name":"BBC Dance Orchestra - Mickey\u2019s Son And Daughter"},{"composition_name":"Marilyn Manson - The Dope Show"},{"composition_name":"System Of A Down - Aerials"},{"composition_name":"Wolfgang Amadeus Mozart - Andante In C Major For Flute And Orchestra"},{"composition_name":"Allan Jones - The Donkey Serenade"}],"tag_name":"2raumwohnung","tag_id":"37"}],"total_count":"1"},"3 Mustaphas 3":{"releases":[{"title":"\u041d\u043e\u0432\u044b\u0435 \u0418\u043c\u0435\u043d\u0430 ","number":"488","date":"21.09.2014","image_url":"\/sites\/default\/files\/styles\/square_crop\/public\/default_images\/%D0%97%D0%B0%D0%B3%D0%BB%D1%83%D1%88%D0%BA%D0%B0-%D0%B4%D0%BB%D1%8F-%D0%B2%D1%8B%D0%BF%D1%83%D1%81%D0%BA%D0%B0-%D0%B1%D0%B5%D0%B7-%D0%BE%D0%B1%D0%BB%D0%BE%D0%B6%D0%BA%D0%B8.jpg?itok=FmtJbsPx","image_artist":"","node_path":"\/release\/488","tags":[{"id":"38","title":"3 Mustaphas 3","name":"3 Mustaphas 3"}],"audiofile_url":"http:\/\/aerostats.getmobileup.com\/music\/488.mp3","composition_list":[{"composition_name":null},{"composition_name":"Shakin\u2019 Stevens - This Ole House"},{"composition_name":"Bobby Vee - Take Good Care Of My Baby"},{"composition_name":"3 Mustaphas 3 - Medley: Buki E Kripe Ne"},{"composition_name":"Omar Souleyman - Hedi Hedi (Slowly, Slowly)"},{"composition_name":"Red Garland - Baby Won\u2019t You Please Come"},{"composition_name":"Lynyrd Skynyrd - Sweet Home Alabama"},{"composition_name":"Steve Reich - Electric Counterpoint: Slow"},{"composition_name":"Status Quo - Paper Plane"},{"composition_name":"Jack Johnson - The Horizon Has Been Defeated"},{"composition_name":"House Of Love - Beatles And The Stones"}],"tag_name":"3 Mustaphas 3","tag_id":"38"}],"total_count":"1"},"38 Special":{"releases":[{"title":"\u0421 \u0420\u043e\u0436\u0434\u0435\u0441\u0442\u0432\u043e\u043c! ","number":"658","date":"24.12.2017","image_url":"\/sites\/default\/files\/styles\/square_crop\/public\/releases\/658.jpg?itok=WYHcqLwE","image_artist":"\u0418\u043b\u043b\u044e\u0441\u0442\u0440\u0430\u0446\u0438\u044f: \u041c\u0430\u0440\u0438\u043d\u0430 \u0411\u0430\u0440\u0442\u043e\u0448","node_path":"\/release\/658","tags":[{"id":"39","title":"38 Special","name":"38 Special"}],"audiofile_url":"http:\/\/aerostats.getmobileup.com\/music\/658.mp3","composition_list":[{"composition_name":null},{"composition_name":"Frank Sinatra - Have Yourself A Merry Little Christmas"},{"composition_name":"Gilbert O\u2019Sullivan - Christmas Song"},{"composition_name":"Kay Starr - (Everybody\u2019s Waiting For) The Man With The Bag"},{"composition_name":"38 Special - Hallelujah, It\u2019s Christmas!"},{"composition_name":"Robert Plant \u0026 Alison Krauss - The Light Of Christmas Day"},{"composition_name":"Dean Martin - Marshmallow World"},{"composition_name":"Enya - The Spirit Of Christmas Past"},{"composition_name":"Burl Ives - A Holly Jolly Christmas"},{"composition_name":"Nat King Cole - Away In A Manger"},{"composition_name":"Kate Rusby - We\u2019ll Sing Hallelujah"},{"composition_name":"Bing Crosby - White Christmas"},{"composition_name":"Keith Emerson - Snowman\u2019s Land"}],"tag_name":"38 Special","tag_id":"39"}],"total_count":"1"},"46bliss":{"releases":[{"title":"\u041d\u043e\u0432\u0435\u043d\u044c\u043a\u043e\u0435","number":"52","date":"14.05.2006","image_url":"\/sites\/default\/files\/styles\/square_crop\/public\/default_images\/%D0%97%D0%B0%D0%B3%D0%BB%D1%83%D1%88%D0%BA%D0%B0-%D0%B4%D0%BB%D1%8F-%D0%B2%D1%8B%D0%BF%D1%83%D1%81%D0%BA%D0%B0-%D0%B1%D0%B5%D0%B7-%D0%BE%D0%B1%D0%BB%D0%BE%D0%B6%D0%BA%D0%B8.jpg?itok=FmtJbsPx","image_artist":"","node_path":"\/release\/52","tags":[{"id":"40","title":"46bliss","name":"46bliss"}],"audiofile_url":"http:\/\/aerostats.getmobileup.com\/music\/052.mp3","composition_list":[{"composition_name":null},{"composition_name":"Red Hot Chili Peppers - Storm In A Teacup"},{"composition_name":"Bob Dylan - Tell Ol\u0027 Bill"},{"composition_name":" Tom Petty - Square One"},{"composition_name":"Dirty Pretty Things - Bang Bang You\u0027re Dead"},{"composition_name":"Chikinki - Ether Radio"},{"composition_name":"Morrisey - I\u0027ll Never Be Anybody\u0027s Hero Now"},{"composition_name":"46Bliss - In A Long Time"},{"composition_name":"System Of A Down - Attack"},{"composition_name":"Margot \u0026 The Nuclear So\u0027s \u0026 So\u0027s - Paper Kitten Nightmare"},{"composition_name":"Paul Simon - Surprise"}],"tag_name":"46bliss","tag_id":"40"}],"total_count":"1"}},"pager":{"current_page":6,"total_items":"5829","total_pages":729,"items_per_page":8}}