{"rows":{"Beatles":{"releases":[{"title":"Jon Hassell ","number":"90","date":"05.04.2020","image_url":"\/sites\/default\/files\/styles\/square_crop\/public\/releases\/GeV3EbJOSUM-square.jpg?itok=_NM3Bw7i","node_path":"\/jon-hassell","tags":[{"id":"15","title":"Beatles","description":"\u003Cp\u003Edescription of swiwuhat\u003C\/p\u003E","views_number":"5","name":"Beatles"}],"audiofile_url":"http:\/\/aerostats.getmobileup.com\/music\/090.mp3","composition_list":[{"composition_name":"\u0417\u0430\u0433\u043e\u043b\u043e\u0432\u043e\u043a 1"},{"composition_name":"\u0417\u0430\u0433\u043e\u043b\u043e\u0432\u043e\u043a 2"}]}],"total_count":"3"},"\u0418\u043d\u0434\u0438\u044f":{"releases":[{"title":"\u041d\u043e\u0432\u044b\u0435 \u043f\u0435\u0441\u043d\u0438 \u0430\u043f\u0440\u0435\u043b\u044f","number":"548","date":"10.05.2020","image_url":"\/sites\/default\/files\/styles\/square_crop\/public\/releases\/PSf_A2YIFLQ.jpg?itok=BIEKayGt","node_path":"\/novye-pesni-aprelya","tags":[{"id":"29","title":"\u0418\u043d\u0434\u0438\u044f","name":"\u0418\u043d\u0434\u0438\u044f"},{"id":"25","title":"\u043c\u0443\u0437\u044b\u043a\u0430 60-\u0445","name":"\u043c\u0443\u0437\u044b\u043a\u0430 60-\u0445"},{"id":"21","title":"\u0431\u0443\u0434\u0434\u0438\u0437\u043c","description":"\u003Cp\u003Edescription of bow\u003C\/p\u003E","views_number":"3","name":"\u0431\u0443\u0434\u0434\u0438\u0437\u043c"}],"audiofile_url":"http:\/\/aerostats.getmobileup.com\/music\/548.mp3","composition_list":[{"composition_name":"caswekachabruclawrafruspojofranib"}]},{"title":"\u041d\u043e\u0432\u044b\u0435 \u043f\u0435\u0441\u043d\u0438 \u0432 \u043c\u0430\u0435","number":"32","date":"06.04.2020","image_url":"\/sites\/default\/files\/styles\/square_crop\/public\/releases\/c5dce310ae801b520938c1ffa34987db--oil-on-canvas-john-lennon.jpg?itok=2LVrH5tK","node_path":"\/novye-pesni-v-mae","tags":[{"id":"29","title":"\u0418\u043d\u0434\u0438\u044f","name":"\u0418\u043d\u0434\u0438\u044f"},{"id":"23","title":"\u0433\u0438\u0442\u0430\u0440\u0430","description":"\u003Cp\u003Edescription of tadrigeuuwov\u003C\/p\u003E","views_number":"11","name":"\u0433\u0438\u0442\u0430\u0440\u0430"},{"id":"25","title":"\u043c\u0443\u0437\u044b\u043a\u0430 60-\u0445","name":"\u043c\u0443\u0437\u044b\u043a\u0430 60-\u0445"},{"id":"21","title":"\u0431\u0443\u0434\u0434\u0438\u0437\u043c","description":"\u003Cp\u003Edescription of bow\u003C\/p\u003E","views_number":"3","name":"\u0431\u0443\u0434\u0434\u0438\u0437\u043c"},{"id":"27","title":"\u0431\u043b\u044e\u0437","name":"\u0431\u043b\u044e\u0437"}],"audiofile_url":"http:\/\/aerostats.getmobileup.com\/music\/032.mp3","composition_list":[{"composition_name":"stawredavilujopropiste"},{"composition_name":"newrugephubojiliuishotitriprunigiheduswecaswahopristosenetrustiwrijocriwrewagotrupruhupreleshupe"}]}],"total_count":"3"},"\u0431\u043b\u044e\u0437":{"releases":[{"title":"\u041d\u043e\u0432\u044b\u0435 \u043f\u0435\u0441\u043d\u0438 \u0432 \u043c\u0430\u0435","number":"32","date":"06.04.2020","image_url":"\/sites\/default\/files\/styles\/square_crop\/public\/releases\/c5dce310ae801b520938c1ffa34987db--oil-on-canvas-john-lennon.jpg?itok=2LVrH5tK","node_path":"\/novye-pesni-v-mae","tags":[{"id":"29","title":"\u0418\u043d\u0434\u0438\u044f","name":"\u0418\u043d\u0434\u0438\u044f"},{"id":"23","title":"\u0433\u0438\u0442\u0430\u0440\u0430","description":"\u003Cp\u003Edescription of tadrigeuuwov\u003C\/p\u003E","views_number":"11","name":"\u0433\u0438\u0442\u0430\u0440\u0430"},{"id":"25","title":"\u043c\u0443\u0437\u044b\u043a\u0430 60-\u0445","name":"\u043c\u0443\u0437\u044b\u043a\u0430 60-\u0445"},{"id":"21","title":"\u0431\u0443\u0434\u0434\u0438\u0437\u043c","description":"\u003Cp\u003Edescription of bow\u003C\/p\u003E","views_number":"3","name":"\u0431\u0443\u0434\u0434\u0438\u0437\u043c"},{"id":"27","title":"\u0431\u043b\u044e\u0437","name":"\u0431\u043b\u044e\u0437"}],"audiofile_url":"http:\/\/aerostats.getmobileup.com\/music\/032.mp3","composition_list":[{"composition_name":"stawredavilujopropiste"},{"composition_name":"newrugephubojiliuishotitriprunigiheduswecaswahopristosenetrustiwrijocriwrewagotrupruhupreleshupe"}]}],"total_count":"3"},"\u0431\u0443\u0434\u0434\u0438\u0437\u043c":{"releases":[{"title":"Genitus Lucidus Mos Scisco Singularis Vulputate","number":"764","date":"17.05.2020","image_url":"\/sites\/default\/files\/styles\/square_crop\/public\/releases\/qwLTom9AlBg---square.jpg?itok=l1MNAHyI","node_path":"\/genitus-lucidus-mos-scisco-singularis-vulputate","tags":[{"id":"17","title":"\u043f\u0440\u0438\u0442\u0447\u0438","description":"\u003Cp\u003Edescription of souujutraj\u003C\/p\u003E","views_number":"12","name":"\u043f\u0440\u0438\u0442\u0447\u0438"},{"id":"21","title":"\u0431\u0443\u0434\u0434\u0438\u0437\u043c","description":"\u003Cp\u003Edescription of bow\u003C\/p\u003E","views_number":"3","name":"\u0431\u0443\u0434\u0434\u0438\u0437\u043c"}],"audiofile_url":"http:\/\/aerostats.getmobileup.com\/music\/764.mp3","composition_list":[{"composition_name":"tetronuwrekeprephochibumosephofrisposlifrushodecrujecrepruslijakamadecrurespimipreriwreclotrachuricludrogestiwibrubecrothijekithowroclopusotecrophephastucliv"},{"composition_name":"wrabijivislimipocribuvuspawopragesatriclitubusletowobriruswifrubuwrauiueswawrugothugostospewesosluvahauohethokutreclatalocisebolish"},{"composition_name":"ceswobucrobodredrouupecregastaclunojalijodrumechacritrahimalugoprolopusluwromomidrostuvehiphoshathuslehunitrifre"}]},{"title":"\u0411\u0435\u043b\u0442\u0430\u0439\u043d","number":"145","date":"12.04.2020","image_url":"\/sites\/default\/files\/styles\/square_crop\/public\/releases\/hmUPQy-setc.jpg?itok=STDssohv","node_path":"\/beltayn","tags":[{"id":"20","title":"\u043a\u0435\u043b\u044c\u0442\u044b","description":"\u003Cp\u003Edescription of niwar\u003C\/p\u003E","name":"\u043a\u0435\u043b\u044c\u0442\u044b"},{"id":"17","title":"\u043f\u0440\u0438\u0442\u0447\u0438","description":"\u003Cp\u003Edescription of souujutraj\u003C\/p\u003E","views_number":"12","name":"\u043f\u0440\u0438\u0442\u0447\u0438"},{"id":"23","title":"\u0433\u0438\u0442\u0430\u0440\u0430","description":"\u003Cp\u003Edescription of tadrigeuuwov\u003C\/p\u003E","views_number":"11","name":"\u0433\u0438\u0442\u0430\u0440\u0430"},{"id":"21","title":"\u0431\u0443\u0434\u0434\u0438\u0437\u043c","description":"\u003Cp\u003Edescription of bow\u003C\/p\u003E","views_number":"3","name":"\u0431\u0443\u0434\u0434\u0438\u0437\u043c"}],"audiofile_url":"http:\/\/aerostats.getmobileup.com\/music\/145.mp3","composition_list":[{"composition_name":"phukupraspitrishebrestawrabeuadriuuswedaswacoclorutramusigaraguphipheprisustaclenitrosucrebabrinabrahispeslephagaphenasewrapiwrigogeprodoshaspotruswidraliwrauecruhecrepodruvaprarofrus"},{"composition_name":"sta"}]},{"title":"\u0417\u0430\u0431\u044b\u0442\u0430\u044f \u043a\u043b\u0430\u0441\u0441\u0438\u043a\u0430","number":"869","date":"24.05.2020","image_url":"\/sites\/default\/files\/styles\/square_crop\/public\/releases\/YAqZXG8zpFg.jpg?itok=rJ31cGFK","node_path":"\/zabytaya-klassika","tags":[{"id":"21","title":"\u0431\u0443\u0434\u0434\u0438\u0437\u043c","description":"\u003Cp\u003Edescription of bow\u003C\/p\u003E","views_number":"3","name":"\u0431\u0443\u0434\u0434\u0438\u0437\u043c"},{"id":"23","title":"\u0433\u0438\u0442\u0430\u0440\u0430","description":"\u003Cp\u003Edescription of tadrigeuuwov\u003C\/p\u003E","views_number":"11","name":"\u0433\u0438\u0442\u0430\u0440\u0430"}],"audiofile_url":"http:\/\/aerostats.getmobileup.com\/music\/169.mp3","composition_list":[{"composition_name":"pesluhitrigusaclufrashastudospodrespothathephudashefrecobiveprathishukichehubevahudufrichaslicledahakimovirotiphugoslewaueceslebrevachajespof"},{"composition_name":"chabiphaslocriswuslibrephecraprachichoslaphimatratijochudranoswibuthusluuawovespaphiboc"}]},{"title":"\u041d\u043e\u0432\u044b\u0435 \u043f\u0435\u0441\u043d\u0438 \u0430\u043f\u0440\u0435\u043b\u044f","number":"548","date":"10.05.2020","image_url":"\/sites\/default\/files\/styles\/square_crop\/public\/releases\/PSf_A2YIFLQ.jpg?itok=BIEKayGt","node_path":"\/novye-pesni-aprelya","tags":[{"id":"29","title":"\u0418\u043d\u0434\u0438\u044f","name":"\u0418\u043d\u0434\u0438\u044f"},{"id":"25","title":"\u043c\u0443\u0437\u044b\u043a\u0430 60-\u0445","name":"\u043c\u0443\u0437\u044b\u043a\u0430 60-\u0445"},{"id":"21","title":"\u0431\u0443\u0434\u0434\u0438\u0437\u043c","description":"\u003Cp\u003Edescription of bow\u003C\/p\u003E","views_number":"3","name":"\u0431\u0443\u0434\u0434\u0438\u0437\u043c"}],"audiofile_url":"http:\/\/aerostats.getmobileup.com\/music\/548.mp3","composition_list":[{"composition_name":"caswekachabruclawrafruspojofranib"}]},{"title":"\u041d\u043e\u0432\u044b\u0435 \u043f\u0435\u0441\u043d\u0438 \u0432 \u043c\u0430\u0435","number":"32","date":"06.04.2020","image_url":"\/sites\/default\/files\/styles\/square_crop\/public\/releases\/c5dce310ae801b520938c1ffa34987db--oil-on-canvas-john-lennon.jpg?itok=2LVrH5tK","node_path":"\/novye-pesni-v-mae","tags":[{"id":"29","title":"\u0418\u043d\u0434\u0438\u044f","name":"\u0418\u043d\u0434\u0438\u044f"},{"id":"23","title":"\u0433\u0438\u0442\u0430\u0440\u0430","description":"\u003Cp\u003Edescription of tadrigeuuwov\u003C\/p\u003E","views_number":"11","name":"\u0433\u0438\u0442\u0430\u0440\u0430"},{"id":"25","title":"\u043c\u0443\u0437\u044b\u043a\u0430 60-\u0445","name":"\u043c\u0443\u0437\u044b\u043a\u0430 60-\u0445"},{"id":"21","title":"\u0431\u0443\u0434\u0434\u0438\u0437\u043c","description":"\u003Cp\u003Edescription of bow\u003C\/p\u003E","views_number":"3","name":"\u0431\u0443\u0434\u0434\u0438\u0437\u043c"},{"id":"27","title":"\u0431\u043b\u044e\u0437","name":"\u0431\u043b\u044e\u0437"}],"audiofile_url":"http:\/\/aerostats.getmobileup.com\/music\/032.mp3","composition_list":[{"composition_name":"stawredavilujopropiste"},{"composition_name":"newrugephubojiliuishotitriprunigiheduswecaswahopristosenetrustiwrijocriwrewagotrupruhupreleshupe"}]}],"total_count":"6"},"\u0433\u0438\u0442\u0430\u0440\u0430":{"releases":[{"title":"Beatles \u0432 XXI-\u043e\u043c \u0432\u0435\u043a\u0435","number":"376","date":"03.05.2020","image_url":"\/sites\/default\/files\/styles\/square_crop\/public\/releases\/mu5rcMgMV7Q.jpg?itok=okTD9k1Y","node_path":"\/beatles-v-xxi-om-veke","tags":[{"id":"23","title":"\u0433\u0438\u0442\u0430\u0440\u0430","description":"\u003Cp\u003Edescription of tadrigeuuwov\u003C\/p\u003E","views_number":"11","name":"\u0433\u0438\u0442\u0430\u0440\u0430"},{"id":"28","title":"\u0441\u0438\u0442\u0430\u0440","name":"\u0441\u0438\u0442\u0430\u0440"}],"audiofile_url":"http:\/\/aerostats.getmobileup.com\/music\/376.mp3","composition_list":[{"composition_name":"uephatrejucichocluwratrudustewothameclahapotrudolushoclestuhurosluchochusebodrumobigukistacluwecloprepilumajubikachirerodispupethuhu"},{"composition_name":"fraslacresposhuswusastospishitrubrudradidispuphamawrawrauuthutritiuahowoshapestujiswiwuclogamodawijocushushothilufruclekewurojuwikicrosutipremaswispebrospawrophamacouichasatrostebastecruthepucluswithuswufratranatrenisliluphepibregosevoshotejutr"},{"composition_name":"lewebidratrowuslojohagaduuitraslasturatepolucheuicekitusludevopitholaciweguwrocrotratriclephiluuewugomutaslasostiuidrojohothilabewaraputhuwetostoneradanupivemowrikatouijoclivistat"}]},{"title":"Beltain Flook - 2019","number":"1","date":"06.06.2019","image_url":"\/sites\/default\/files\/styles\/square_crop\/public\/releases\/728-0.jpg?itok=_79N8E_J","node_path":"\/beltain-flook-2019","tags":[{"id":"23","title":"\u0433\u0438\u0442\u0430\u0440\u0430","description":"\u003Cp\u003Edescription of tadrigeuuwov\u003C\/p\u003E","views_number":"11","name":"\u0433\u0438\u0442\u0430\u0440\u0430"},{"id":"23","title":"\u0433\u0438\u0442\u0430\u0440\u0430","description":"\u003Cp\u003Edescription of tadrigeuuwov\u003C\/p\u003E","views_number":"11","name":"\u0433\u0438\u0442\u0430\u0440\u0430"},{"id":"20","title":"\u043a\u0435\u043b\u044c\u0442\u044b","description":"\u003Cp\u003Edescription of niwar\u003C\/p\u003E","name":"\u043a\u0435\u043b\u044c\u0442\u044b"}],"audiofile_url":"http:\/\/aerostats.getmobileup.com\/music\/001.mp3","composition_list":[{"composition_name":null},{"composition_name":"Flook - Lalabee\/Jig For Simon"},{"composition_name":"Flook - Omos Sheamuis\/The Quickenbeam"},{"composition_name":"Flook - Reel For Rubik\/Toward The Sun"}]},{"title":"Beltain Flook - 2019","number":"1","date":"06.06.2019","image_url":"\/sites\/default\/files\/styles\/square_crop\/public\/releases\/728-0.jpg?itok=_79N8E_J","node_path":"\/beltain-flook-2019","tags":[{"id":"23","title":"\u0433\u0438\u0442\u0430\u0440\u0430","description":"\u003Cp\u003Edescription of tadrigeuuwov\u003C\/p\u003E","views_number":"11","name":"\u0433\u0438\u0442\u0430\u0440\u0430"},{"id":"23","title":"\u0433\u0438\u0442\u0430\u0440\u0430","description":"\u003Cp\u003Edescription of tadrigeuuwov\u003C\/p\u003E","views_number":"11","name":"\u0433\u0438\u0442\u0430\u0440\u0430"},{"id":"20","title":"\u043a\u0435\u043b\u044c\u0442\u044b","description":"\u003Cp\u003Edescription of niwar\u003C\/p\u003E","name":"\u043a\u0435\u043b\u044c\u0442\u044b"}],"audiofile_url":"http:\/\/aerostats.getmobileup.com\/music\/001.mp3","composition_list":[{"composition_name":null},{"composition_name":"Flook - Lalabee\/Jig For Simon"},{"composition_name":"Flook - Omos Sheamuis\/The Quickenbeam"},{"composition_name":"Flook - Reel For Rubik\/Toward The Sun"}]},{"title":"\u0411\u0435\u043b\u0442\u0430\u0439\u043d","number":"145","date":"12.04.2020","image_url":"\/sites\/default\/files\/styles\/square_crop\/public\/releases\/hmUPQy-setc.jpg?itok=STDssohv","node_path":"\/beltayn","tags":[{"id":"20","title":"\u043a\u0435\u043b\u044c\u0442\u044b","description":"\u003Cp\u003Edescription of niwar\u003C\/p\u003E","name":"\u043a\u0435\u043b\u044c\u0442\u044b"},{"id":"17","title":"\u043f\u0440\u0438\u0442\u0447\u0438","description":"\u003Cp\u003Edescription of souujutraj\u003C\/p\u003E","views_number":"12","name":"\u043f\u0440\u0438\u0442\u0447\u0438"},{"id":"23","title":"\u0433\u0438\u0442\u0430\u0440\u0430","description":"\u003Cp\u003Edescription of tadrigeuuwov\u003C\/p\u003E","views_number":"11","name":"\u0433\u0438\u0442\u0430\u0440\u0430"},{"id":"21","title":"\u0431\u0443\u0434\u0434\u0438\u0437\u043c","description":"\u003Cp\u003Edescription of bow\u003C\/p\u003E","views_number":"3","name":"\u0431\u0443\u0434\u0434\u0438\u0437\u043c"}],"audiofile_url":"http:\/\/aerostats.getmobileup.com\/music\/145.mp3","composition_list":[{"composition_name":"phukupraspitrishebrestawrabeuadriuuswedaswacoclorutramusigaraguphipheprisustaclenitrosucrebabrinabrahispeslephagaphenasewrapiwrigogeprodoshaspotruswidraliwrauecruhecrepodruvaprarofrus"},{"composition_name":"sta"}]},{"title":"\u0417\u0430\u0431\u044b\u0442\u0430\u044f \u043a\u043b\u0430\u0441\u0441\u0438\u043a\u0430","number":"869","date":"24.05.2020","image_url":"\/sites\/default\/files\/styles\/square_crop\/public\/releases\/YAqZXG8zpFg.jpg?itok=rJ31cGFK","node_path":"\/zabytaya-klassika","tags":[{"id":"21","title":"\u0431\u0443\u0434\u0434\u0438\u0437\u043c","description":"\u003Cp\u003Edescription of bow\u003C\/p\u003E","views_number":"3","name":"\u0431\u0443\u0434\u0434\u0438\u0437\u043c"},{"id":"23","title":"\u0433\u0438\u0442\u0430\u0440\u0430","description":"\u003Cp\u003Edescription of tadrigeuuwov\u003C\/p\u003E","views_number":"11","name":"\u0433\u0438\u0442\u0430\u0440\u0430"}],"audiofile_url":"http:\/\/aerostats.getmobileup.com\/music\/169.mp3","composition_list":[{"composition_name":"pesluhitrigusaclufrashastudospodrespothathephudashefrecobiveprathishukichehubevahudufrichaslicledahakimovirotiphugoslewaueceslebrevachajespof"},{"composition_name":"chabiphaslocriswuslibrephecraprachichoslaphimatratijochudranoswibuthusluuawovespaphiboc"}]},{"title":"\u041d\u043e\u0432\u044b\u0435 \u043f\u0435\u0441\u043d\u0438 \u0432 \u043c\u0430\u0435","number":"32","date":"06.04.2020","image_url":"\/sites\/default\/files\/styles\/square_crop\/public\/releases\/c5dce310ae801b520938c1ffa34987db--oil-on-canvas-john-lennon.jpg?itok=2LVrH5tK","node_path":"\/novye-pesni-v-mae","tags":[{"id":"29","title":"\u0418\u043d\u0434\u0438\u044f","name":"\u0418\u043d\u0434\u0438\u044f"},{"id":"23","title":"\u0433\u0438\u0442\u0430\u0440\u0430","description":"\u003Cp\u003Edescription of tadrigeuuwov\u003C\/p\u003E","views_number":"11","name":"\u0433\u0438\u0442\u0430\u0440\u0430"},{"id":"25","title":"\u043c\u0443\u0437\u044b\u043a\u0430 60-\u0445","name":"\u043c\u0443\u0437\u044b\u043a\u0430 60-\u0445"},{"id":"21","title":"\u0431\u0443\u0434\u0434\u0438\u0437\u043c","description":"\u003Cp\u003Edescription of bow\u003C\/p\u003E","views_number":"3","name":"\u0431\u0443\u0434\u0434\u0438\u0437\u043c"},{"id":"27","title":"\u0431\u043b\u044e\u0437","name":"\u0431\u043b\u044e\u0437"}],"audiofile_url":"http:\/\/aerostats.getmobileup.com\/music\/032.mp3","composition_list":[{"composition_name":"stawredavilujopropiste"},{"composition_name":"newrugephubojiliuishotitriprunigiheduswecaswahopristosenetrustiwrijocriwrewagotrupruhupreleshupe"}]}],"total_count":"8"},"\u043a\u0435\u043b\u044c\u0442\u044b":{"releases":[{"title":"Beltain Flook - 2019","number":"1","date":"06.06.2019","image_url":"\/sites\/default\/files\/styles\/square_crop\/public\/releases\/728-0.jpg?itok=_79N8E_J","node_path":"\/beltain-flook-2019","tags":[{"id":"23","title":"\u0433\u0438\u0442\u0430\u0440\u0430","description":"\u003Cp\u003Edescription of tadrigeuuwov\u003C\/p\u003E","views_number":"11","name":"\u0433\u0438\u0442\u0430\u0440\u0430"},{"id":"23","title":"\u0433\u0438\u0442\u0430\u0440\u0430","description":"\u003Cp\u003Edescription of tadrigeuuwov\u003C\/p\u003E","views_number":"11","name":"\u0433\u0438\u0442\u0430\u0440\u0430"},{"id":"20","title":"\u043a\u0435\u043b\u044c\u0442\u044b","description":"\u003Cp\u003Edescription of niwar\u003C\/p\u003E","name":"\u043a\u0435\u043b\u044c\u0442\u044b"}],"audiofile_url":"http:\/\/aerostats.getmobileup.com\/music\/001.mp3","composition_list":[{"composition_name":null},{"composition_name":"Flook - Lalabee\/Jig For Simon"},{"composition_name":"Flook - Omos Sheamuis\/The Quickenbeam"},{"composition_name":"Flook - Reel For Rubik\/Toward The Sun"}]},{"title":"\u0411\u0435\u043b\u0442\u0430\u0439\u043d","number":"145","date":"12.04.2020","image_url":"\/sites\/default\/files\/styles\/square_crop\/public\/releases\/hmUPQy-setc.jpg?itok=STDssohv","node_path":"\/beltayn","tags":[{"id":"20","title":"\u043a\u0435\u043b\u044c\u0442\u044b","description":"\u003Cp\u003Edescription of niwar\u003C\/p\u003E","name":"\u043a\u0435\u043b\u044c\u0442\u044b"},{"id":"17","title":"\u043f\u0440\u0438\u0442\u0447\u0438","description":"\u003Cp\u003Edescription of souujutraj\u003C\/p\u003E","views_number":"12","name":"\u043f\u0440\u0438\u0442\u0447\u0438"},{"id":"23","title":"\u0433\u0438\u0442\u0430\u0440\u0430","description":"\u003Cp\u003Edescription of tadrigeuuwov\u003C\/p\u003E","views_number":"11","name":"\u0433\u0438\u0442\u0430\u0440\u0430"},{"id":"21","title":"\u0431\u0443\u0434\u0434\u0438\u0437\u043c","description":"\u003Cp\u003Edescription of bow\u003C\/p\u003E","views_number":"3","name":"\u0431\u0443\u0434\u0434\u0438\u0437\u043c"}],"audiofile_url":"http:\/\/aerostats.getmobileup.com\/music\/145.mp3","composition_list":[{"composition_name":"phukupraspitrishebrestawrabeuadriuuswedaswacoclorutramusigaraguphipheprisustaclenitrosucrebabrinabrahispeslephagaphenasewrapiwrigogeprodoshaspotruswidraliwrauecruhecrepodruvaprarofrus"},{"composition_name":"sta"}]}],"total_count":"3"},"\u043c\u0443\u0437\u044b\u043a\u0430 60-\u0445":{"releases":[{"title":"\u041d\u043e\u0432\u044b\u0435 \u043f\u0435\u0441\u043d\u0438 \u0430\u043f\u0440\u0435\u043b\u044f","number":"548","date":"10.05.2020","image_url":"\/sites\/default\/files\/styles\/square_crop\/public\/releases\/PSf_A2YIFLQ.jpg?itok=BIEKayGt","node_path":"\/novye-pesni-aprelya","tags":[{"id":"29","title":"\u0418\u043d\u0434\u0438\u044f","name":"\u0418\u043d\u0434\u0438\u044f"},{"id":"25","title":"\u043c\u0443\u0437\u044b\u043a\u0430 60-\u0445","name":"\u043c\u0443\u0437\u044b\u043a\u0430 60-\u0445"},{"id":"21","title":"\u0431\u0443\u0434\u0434\u0438\u0437\u043c","description":"\u003Cp\u003Edescription of bow\u003C\/p\u003E","views_number":"3","name":"\u0431\u0443\u0434\u0434\u0438\u0437\u043c"}],"audiofile_url":"http:\/\/aerostats.getmobileup.com\/music\/548.mp3","composition_list":[{"composition_name":"caswekachabruclawrafruspojofranib"}]},{"title":"\u041d\u043e\u0432\u044b\u0435 \u043f\u0435\u0441\u043d\u0438 \u0432 \u043c\u0430\u0435","number":"32","date":"06.04.2020","image_url":"\/sites\/default\/files\/styles\/square_crop\/public\/releases\/c5dce310ae801b520938c1ffa34987db--oil-on-canvas-john-lennon.jpg?itok=2LVrH5tK","node_path":"\/novye-pesni-v-mae","tags":[{"id":"29","title":"\u0418\u043d\u0434\u0438\u044f","name":"\u0418\u043d\u0434\u0438\u044f"},{"id":"23","title":"\u0433\u0438\u0442\u0430\u0440\u0430","description":"\u003Cp\u003Edescription of tadrigeuuwov\u003C\/p\u003E","views_number":"11","name":"\u0433\u0438\u0442\u0430\u0440\u0430"},{"id":"25","title":"\u043c\u0443\u0437\u044b\u043a\u0430 60-\u0445","name":"\u043c\u0443\u0437\u044b\u043a\u0430 60-\u0445"},{"id":"21","title":"\u0431\u0443\u0434\u0434\u0438\u0437\u043c","description":"\u003Cp\u003Edescription of bow\u003C\/p\u003E","views_number":"3","name":"\u0431\u0443\u0434\u0434\u0438\u0437\u043c"},{"id":"27","title":"\u0431\u043b\u044e\u0437","name":"\u0431\u043b\u044e\u0437"}],"audiofile_url":"http:\/\/aerostats.getmobileup.com\/music\/032.mp3","composition_list":[{"composition_name":"stawredavilujopropiste"},{"composition_name":"newrugephubojiliuishotitriprunigiheduswecaswahopristosenetrustiwrijocriwrewagotrupruhupreleshupe"}]}],"total_count":"4"},"\u043f\u0440\u0438\u0442\u0447\u0438":{"releases":[{"title":"Genitus Lucidus Mos Scisco Singularis Vulputate","number":"764","date":"17.05.2020","image_url":"\/sites\/default\/files\/styles\/square_crop\/public\/releases\/qwLTom9AlBg---square.jpg?itok=l1MNAHyI","node_path":"\/genitus-lucidus-mos-scisco-singularis-vulputate","tags":[{"id":"17","title":"\u043f\u0440\u0438\u0442\u0447\u0438","description":"\u003Cp\u003Edescription of souujutraj\u003C\/p\u003E","views_number":"12","name":"\u043f\u0440\u0438\u0442\u0447\u0438"},{"id":"21","title":"\u0431\u0443\u0434\u0434\u0438\u0437\u043c","description":"\u003Cp\u003Edescription of bow\u003C\/p\u003E","views_number":"3","name":"\u0431\u0443\u0434\u0434\u0438\u0437\u043c"}],"audiofile_url":"http:\/\/aerostats.getmobileup.com\/music\/764.mp3","composition_list":[{"composition_name":"tetronuwrekeprephochibumosephofrisposlifrushodecrujecrepruslijakamadecrurespimipreriwreclotrachuricludrogestiwibrubecrothijekithowroclopusotecrophephastucliv"},{"composition_name":"wrabijivislimipocribuvuspawopragesatriclitubusletowobriruswifrubuwrauiueswawrugothugostospewesosluvahauohethokutreclatalocisebolish"},{"composition_name":"ceswobucrobodredrouupecregastaclunojalijodrumechacritrahimalugoprolopusluwromomidrostuvehiphoshathuslehunitrifre"}]},{"title":"\u0411\u0435\u043b\u0442\u0430\u0439\u043d","number":"145","date":"12.04.2020","image_url":"\/sites\/default\/files\/styles\/square_crop\/public\/releases\/hmUPQy-setc.jpg?itok=STDssohv","node_path":"\/beltayn","tags":[{"id":"20","title":"\u043a\u0435\u043b\u044c\u0442\u044b","description":"\u003Cp\u003Edescription of niwar\u003C\/p\u003E","name":"\u043a\u0435\u043b\u044c\u0442\u044b"},{"id":"17","title":"\u043f\u0440\u0438\u0442\u0447\u0438","description":"\u003Cp\u003Edescription of souujutraj\u003C\/p\u003E","views_number":"12","name":"\u043f\u0440\u0438\u0442\u0447\u0438"},{"id":"23","title":"\u0433\u0438\u0442\u0430\u0440\u0430","description":"\u003Cp\u003Edescription of tadrigeuuwov\u003C\/p\u003E","views_number":"11","name":"\u0433\u0438\u0442\u0430\u0440\u0430"},{"id":"21","title":"\u0431\u0443\u0434\u0434\u0438\u0437\u043c","description":"\u003Cp\u003Edescription of bow\u003C\/p\u003E","views_number":"3","name":"\u0431\u0443\u0434\u0434\u0438\u0437\u043c"}],"audiofile_url":"http:\/\/aerostats.getmobileup.com\/music\/145.mp3","composition_list":[{"composition_name":"phukupraspitrishebrestawrabeuadriuuswedaswacoclorutramusigaraguphipheprisustaclenitrosucrebabrinabrahispeslephagaphenasewrapiwrigogeprodoshaspotruswidraliwrauecruhecrepodruvaprarofrus"},{"composition_name":"sta"}]}],"total_count":"3"},"\u0441\u0438\u0442\u0430\u0440":{"releases":[{"title":"Beatles \u0432 XXI-\u043e\u043c \u0432\u0435\u043a\u0435","number":"376","date":"03.05.2020","image_url":"\/sites\/default\/files\/styles\/square_crop\/public\/releases\/mu5rcMgMV7Q.jpg?itok=okTD9k1Y","node_path":"\/beatles-v-xxi-om-veke","tags":[{"id":"23","title":"\u0433\u0438\u0442\u0430\u0440\u0430","description":"\u003Cp\u003Edescription of tadrigeuuwov\u003C\/p\u003E","views_number":"11","name":"\u0433\u0438\u0442\u0430\u0440\u0430"},{"id":"28","title":"\u0441\u0438\u0442\u0430\u0440","name":"\u0441\u0438\u0442\u0430\u0440"}],"audiofile_url":"http:\/\/aerostats.getmobileup.com\/music\/376.mp3","composition_list":[{"composition_name":"uephatrejucichocluwratrudustewothameclahapotrudolushoclestuhurosluchochusebodrumobigukistacluwecloprepilumajubikachirerodispupethuhu"},{"composition_name":"fraslacresposhuswusastospishitrubrudradidispuphamawrawrauuthutritiuahowoshapestujiswiwuclogamodawijocushushothilufruclekewurojuwikicrosutipremaswispebrospawrophamacouichasatrostebastecruthepucluswithuswufratranatrenisliluphepibregosevoshotejutr"},{"composition_name":"lewebidratrowuslojohagaduuitraslasturatepolucheuicekitusludevopitholaciweguwrocrotratriclephiluuewugomutaslasostiuidrojohothilabewaraputhuwetostoneradanupivemowrikatouijoclivistat"}]}],"total_count":"3"}},"pager":{"current_page":0,"total_items":"12","total_pages":2,"items_per_page":8}}